{
  "id": "2dab4a7b-b78e-46d7-90e1-33596f6ece69",
  "name": "Send template email to {member.email}",
  "form": "a57660e3-d24c-4a0a-b405-0229643141dd",
  "active": true,
  "workflowTypeId": "17c61629-d984-4e86-b43b-a8407b3efea9",
  "executesOn": "Submitted",
  "settings": {
    "Email": "{member.email}",
    "SenderEmail": "",
    "Subject": "The Form '{form_name}' was submitted",
    "RazorViewFilePath": "Forms/Emails/Example-Template.cshtml",
    "Attachment": ""
  },
  "sortOrder": 1
}