
-------------------------------------------------------------------------------
   ROBOCOPY     ::     Robust File Copy for Windows                              
-------------------------------------------------------------------------------

  Started : 21 August 2017 06:45:08
   Source : C:\Users\matt\Documents\Visual Studio 2015\Projects\quiz3 (2)\packages\UmbracoCms.7.6.5\UmbracoFiles\Umbraco_Client\
     Dest : C:\Users\matt\Documents\Visual Studio 2015\Projects\quiz3\Umbraco_Client\

    Files : *.*
	    
  Options : *.* /S /E /DCOPY:DA /COPY:DAT /IS /IT /R:1000000 /W:30 

------------------------------------------------------------------------------

	                   0	C:\Users\matt\Documents\Visual Studio 2015\Projects\quiz3 (2)\packages\UmbracoCms.7.6.5\UmbracoFiles\Umbraco_Client\
	  New Dir          7	C:\Users\matt\Documents\Visual Studio 2015\Projects\quiz3 (2)\packages\UmbracoCms.7.6.5\UmbracoFiles\Umbraco_Client\Application\
	    New File  		   13503	Extensions.js  0%  100%  
	    New File  		    2417	HistoryManager.js  0%  100%  
	    New File  		     839	NamespaceManager.js  0%  100%  
	    New File  		   21957	UmbracoApplicationActions.js  0%  100%  
	    New File  		   12833	UmbracoClientManager.js  0%  100%  
	    New File  		     374	UmbracoUtils.js  0%  100%  
	    New File  		    2060	UrlEncoder.js  0%  100%  
	  New Dir         12	C:\Users\matt\Documents\Visual Studio 2015\Projects\quiz3 (2)\packages\UmbracoCms.7.6.5\UmbracoFiles\Umbraco_Client\Application\JQuery\
	    New File  		    2057	jquery-fieldselection.js  0%  100%  
	    New File  		   30336	jquery.autocomplete.js  0%  100%  
	    New File  		    5941	jquery.ba-bbq.min.js  0%  100%  
	    New File  		    4344	jquery.cookie.js  0%  100%  
	    New File  		    3178	jquery.hotkeys.js  0%  100%  
	    New File  		    6992	jquery.idle-timer.js  0%  100%  
	    New File  		    1304	jquery.metadata.min.js  0%  100%  
	    New File  		     165	jquery.noconflict-invoke.js  0%  100%  
	    New File  		    2749	jquery.unobtrusive-ajax.min.js  0%  100%  
	    New File  		   21496	jquery.validate.min.js  0%  100%  
	    New File  		    3745	jquery.validate.unobtrusive.min.js  0%  100%  
	    New File  		     255	VerticalAlign.js  0%  100%  
	  New Dir          3	C:\Users\matt\Documents\Visual Studio 2015\Projects\quiz3 (2)\packages\UmbracoCms.7.6.5\UmbracoFiles\Umbraco_Client\CodeArea\
	    New File  		    6126	javascript.js  0%  100%  
	    New File  		     305	styles.css  0%  100%  
	    New File  		    6997	UmbracoEditor.js  0%  100%  
	  New Dir          0	C:\Users\matt\Documents\Visual Studio 2015\Projects\quiz3 (2)\packages\UmbracoCms.7.6.5\UmbracoFiles\Umbraco_Client\Colorpicker\
	  New Dir          1	C:\Users\matt\Documents\Visual Studio 2015\Projects\quiz3 (2)\packages\UmbracoCms.7.6.5\UmbracoFiles\Umbraco_Client\Colorpicker\Css\
	    New File  		    3367	colorpicker.css  0%  100%  
	  New Dir         26	C:\Users\matt\Documents\Visual Studio 2015\Projects\quiz3 (2)\packages\UmbracoCms.7.6.5\UmbracoFiles\Umbraco_Client\Colorpicker\Images\
	    New File  		      49	blank.gif  0%  100%  
	    New File  		    1897	colorpicker_background.png  0%  100%  
	    New File  		     532	colorpicker_hex.png  0%  100%  
	    New File  		     970	colorpicker_hsb_b.png  0%  100%  
	    New File  		    1012	colorpicker_hsb_h.png  0%  100%  
	    New File  		    1171	colorpicker_hsb_s.png  0%  100%  
	    New File  		      86	colorpicker_indic.gif  0%  100%  
	    New File  		   10355	colorpicker_overlay.png  0%  100%  
	    New File  		     970	colorpicker_rgb_b.png  0%  100%  
	    New File  		    1069	colorpicker_rgb_g.png  0%  100%  
	    New File  		    1066	colorpicker_rgb_r.png  0%  100%  
	    New File  		      78	colorpicker_select.gif  0%  100%  
	    New File  		     984	colorpicker_submit.png  0%  100%  
	    New File  		    1916	custom_background.png  0%  100%  
	    New File  		     562	custom_hex.png  0%  100%  
	    New File  		    1097	custom_hsb_b.png  0%  100%  
	    New File  		     970	custom_hsb_h.png  0%  100%  
	    New File  		    1168	custom_hsb_s.png  0%  100%  
	    New File  		      86	custom_indic.gif  0%  100%  
	    New File  		    1008	custom_rgb_b.png  0%  100%  
	    New File  		    1069	custom_rgb_g.png  0%  100%  
	    New File  		    1018	custom_rgb_r.png  0%  100%  
	    New File  		     997	custom_submit.png  0%  100%  
	    New File  		     506	select.png  0%  100%  
	    New File  		     518	select2.png  0%  100%  
	    New File  		     315	slider.png  0%  100%  
	  New Dir          1	C:\Users\matt\Documents\Visual Studio 2015\Projects\quiz3 (2)\packages\UmbracoCms.7.6.5\UmbracoFiles\Umbraco_Client\Colorpicker\Js\
	    New File  		   17175	colorpicker.js  0%  100%  
	  New Dir          0	C:\Users\matt\Documents\Visual Studio 2015\Projects\quiz3 (2)\packages\UmbracoCms.7.6.5\UmbracoFiles\Umbraco_Client\ContextMenu\
	  New Dir          1	C:\Users\matt\Documents\Visual Studio 2015\Projects\quiz3 (2)\packages\UmbracoCms.7.6.5\UmbracoFiles\Umbraco_Client\ContextMenu\Css\
	    New File  		    4026	jquery.contextMenu.css  0%  100%  
	  New Dir          1	C:\Users\matt\Documents\Visual Studio 2015\Projects\quiz3 (2)\packages\UmbracoCms.7.6.5\UmbracoFiles\Umbraco_Client\ContextMenu\Js\
	    New File  		   62773	jquery.contextMenu.js  0%  100%  
	  New Dir          0	C:\Users\matt\Documents\Visual Studio 2015\Projects\quiz3 (2)\packages\UmbracoCms.7.6.5\UmbracoFiles\Umbraco_Client\Datepicker\
	  New Dir         10	C:\Users\matt\Documents\Visual Studio 2015\Projects\quiz3 (2)\packages\UmbracoCms.7.6.5\UmbracoFiles\Umbraco_Client\Datepicker\Aqua\
	    New File  		      89	active-bg.gif  0%  100%  
	    New File  		      85	dark-bg.gif  0%  100%  
	    New File  		      89	hover-bg.gif  0%  100%  
	    New File  		      49	menuarrow.gif  0%  100%  
	    New File  		     110	normal-bg.gif  0%  100%  
	    New File  		     110	rowhover-bg.gif  0%  100%  
	    New File  		     116	status-bg.gif  0%  100%  
	    New File  		    4941	theme.css  0%  100%  
	    New File  		     116	title-bg.gif  0%  100%  
	    New File  		    1122	today-bg.gif  0%  100%  
	  New Dir          2	C:\Users\matt\Documents\Visual Studio 2015\Projects\quiz3 (2)\packages\UmbracoCms.7.6.5\UmbracoFiles\Umbraco_Client\Datepicker\Images\
	    New File  		     674	calPickerIcon.png  0%  100%  
	    New File  		     633	calPickerIconHover.png  0%  100%  
	  New Dir          3	C:\Users\matt\Documents\Visual Studio 2015\Projects\quiz3 (2)\packages\UmbracoCms.7.6.5\UmbracoFiles\Umbraco_Client\DateTimePicker\
	    New File  		   20315	datetimepicker.css  0%  100%  
	    New File  		   13311	timepicker.js  0%  100%  
	    New File  		    1939	umbDateTimePicker.js  0%  100%  
	  New Dir          3	C:\Users\matt\Documents\Visual Studio 2015\Projects\quiz3 (2)\packages\UmbracoCms.7.6.5\UmbracoFiles\Umbraco_Client\DateTimePicker\Images\
	    New File  		    1110	calSprite.png  0%  100%  
	    New File  		    8673	ui-icons_666666_256x240.png  0%  100%  
	    New File  		    8641	ui-icons_999999_256x240.png  0%  100%  
	  New Dir         10	C:\Users\matt\Documents\Visual Studio 2015\Projects\quiz3 (2)\packages\UmbracoCms.7.6.5\UmbracoFiles\Umbraco_Client\Dialogs\
	    New File  		     362	AssignDomain2.css  0%  100%  
	    New File  		    5351	AssignDomain2.js  0%  100%  
	    New File  		     212	CreateDialog.css  0%  100%  
	    New File  		     316	EditMacro.css  0%  100%  
	    New File  		    7379	EditMacro.js  0%  100%  
	    New File  		     362	PublishDialog.css  0%  100%  
	    New File  		    3481	PublishDialog.js  0%  100%  
	    New File  		    1171	SortDialog.css  0%  100%  
	    New File  		    4674	SortDialog.js  0%  100%  
	    New File  		    6012	UmbracoField.js  0%  100%  
	  New Dir          9	C:\Users\matt\Documents\Visual Studio 2015\Projects\quiz3 (2)\packages\UmbracoCms.7.6.5\UmbracoFiles\Umbraco_Client\Editors\
	    New File  		     486	DirectoryBrowser.css  0%  100%  
	    New File  		     703	EditMacro.css  0%  100%  
	    New File  		    3039	EditMacroScripts.js  0%  100%  
	    New File  		    4183	EditScript.js  0%  100%  
	    New File  		    3796	EditStyleSheet.js  0%  100%  
	    New File  		    6259	EditTemplate.js  0%  100%  
	    New File  		   11260	EditView.js  0%  100%  
	    New File  		     161	EditXslt.css  0%  100%  
	    New File  		    2967	EditXslt.js  0%  100%  
	  New Dir          0	C:\Users\matt\Documents\Visual Studio 2015\Projects\quiz3 (2)\packages\UmbracoCms.7.6.5\UmbracoFiles\Umbraco_Client\FileUploader\
	  New Dir          1	C:\Users\matt\Documents\Visual Studio 2015\Projects\quiz3 (2)\packages\UmbracoCms.7.6.5\UmbracoFiles\Umbraco_Client\FileUploader\Js\
	    New File  		   16856	jquery.fileUploader.js  0%  100%  
	  New Dir          0	C:\Users\matt\Documents\Visual Studio 2015\Projects\quiz3 (2)\packages\UmbracoCms.7.6.5\UmbracoFiles\Umbraco_Client\FolderBrowser\
	  New Dir          1	C:\Users\matt\Documents\Visual Studio 2015\Projects\quiz3 (2)\packages\UmbracoCms.7.6.5\UmbracoFiles\Umbraco_Client\FolderBrowser\Css\
	    New File  		    5366	folderbrowser.css  0%  100%  
	  New Dir          1	C:\Users\matt\Documents\Visual Studio 2015\Projects\quiz3 (2)\packages\UmbracoCms.7.6.5\UmbracoFiles\Umbraco_Client\FolderBrowser\Js\
	    New File  		   18665	folderbrowser.js  0%  100%  
	  New Dir          1	C:\Users\matt\Documents\Visual Studio 2015\Projects\quiz3 (2)\packages\UmbracoCms.7.6.5\UmbracoFiles\Umbraco_Client\IconPicker\
	    New File  		      52	iconpicker.js  0%  100%  
	  New Dir          1	C:\Users\matt\Documents\Visual Studio 2015\Projects\quiz3 (2)\packages\UmbracoCms.7.6.5\UmbracoFiles\Umbraco_Client\Imagecropper\
	    New File  		     329	Jcrop.gif  0%  100%  
	  New Dir          1	C:\Users\matt\Documents\Visual Studio 2015\Projects\quiz3 (2)\packages\UmbracoCms.7.6.5\UmbracoFiles\Umbraco_Client\Images\
	    New File  		   10819	progressbar.gif  0%  100%  
	  New Dir          0	C:\Users\matt\Documents\Visual Studio 2015\Projects\quiz3 (2)\packages\UmbracoCms.7.6.5\UmbracoFiles\Umbraco_Client\Installer\
	  New Dir          5	C:\Users\matt\Documents\Visual Studio 2015\Projects\quiz3 (2)\packages\UmbracoCms.7.6.5\UmbracoFiles\Umbraco_Client\Installer\Css\
	    New File  		   23469	all.css  0%  100%  
	    New File  		    1314	form.css  0%  100%  
	    New File  		   20078	jquery-ui-1.8.6.custom.css  0%  100%  
	    New File  		    7958	lt7.css  0%  100%  
	    New File  		     967	reset.css  0%  100%  
	  New Dir         98	C:\Users\matt\Documents\Visual Studio 2015\Projects\quiz3 (2)\packages\UmbracoCms.7.6.5\UmbracoFiles\Umbraco_Client\Installer\Images\
	    New File  		   19424	bg-bhuiness-cl.gif  0%  100%  
	    New File  		   46684	bg-bhuiness-cr.gif  0%  100%  
	    New File  		  184850	bg-bhuiness.jpg  0%   70%  100%  
	    New File  		   18564	bg-blog-cl.gif  0%  100%  
	    New File  		   50756	bg-blog-cr.gif  0%  100%  
	    New File  		   11078	bg-blog-repeat.jpg  0%  100%  
	    New File  		  187609	bg-blog.jpg  0%   69%  100%  
	    New File  		     387	bg-drop-b.png  0%  100%  
	    New File  		      84	bg-drop-c.gif  0%  100%  
	    New File  		     391	bg-drop-t.png  0%  100%  
	    New File  		     158	bg-header.png  0%  100%  
	    New File  		    3915	bg-img-ie.png  0%  100%  
	    New File  		    2452	bg-img.png  0%  100%  
	    New File  		     866	bg-inp-big.png  0%  100%  
	    New File  		     616	bg-inp-error.png  0%  100%  
	    New File  		     621	bg-inp.png  0%  100%  
	    New File  		     283	bg-lightbox-b.png  0%  100%  
	    New File  		     296	bg-lightbox-t.png  0%  100%  
	    New File  		   18097	bg-normal-cl.gif  0%  100%  
	    New File  		   46703	bg-normal-cr.gif  0%  100%  
	    New File  		    9811	bg-normal-repeat.jpg  0%  100%  
	    New File  		  178356	bg-normal.jpg  0%   73%  100%  
	    New File  		     366	bg-paging-h.png  0%  100%  
	    New File  		     346	bg-paging.png  0%  100%  
	    New File  		   18097	bg-personal-cl.gif  0%  100%  
	    New File  		   46703	bg-personal-cr.gif  0%  100%  
	    New File  		    9811	bg-personal-repeat.jpg  0%  100%  
	    New File  		  178356	bg-personal.jpg  0%   73%  100%  
	    New File  		   17705	bg-simple-cl.gif  0%  100%  
	    New File  		   42137	bg-simple-cr.gif  0%  100%  
	    New File  		   12773	bg-simple-repeat.jpg  0%  100%  
	    New File  		  216794	bg-simple.jpg  0%   60%  100%  
	    New File  		    6059	btn-accept.png  0%  100%  
	    New File  		    2708	btn-back.png  0%  100%  
	    New File  		   22650	btn-blog.png  0%  100%  
	    New File  		   16942	btn-buisness-repeat.png  0%  100%  
	    New File  		   26481	btn-buisness.png  0%  100%  
	    New File  		    1682	btn-close.png  0%  100%  
	    New File  		    3113	btn-confirm.png  0%  100%  
	    New File  		    3500	btn-continue.png  0%  100%  
	    New File  		    2243	btn-create-hover.png  0%  100%  
	    New File  		    4277	btn-create.png  0%  100%  
	    New File  		    6109	btn-get.png  0%  100%  
	    New File  		    6446	btn-install-gal.png  0%  100%  
	    New File  		    1484	btn-install-hover.png  0%  100%  
	    New File  		    2789	btn-install.png  0%  100%  
	    New File  		     952	btn-next.png  0%  100%  
	    New File  		   25962	btn-no-thanks.png  0%  100%  
	    New File  		    1898	btn-no.png  0%  100%  
	    New File  		   30788	btn-personal.png  0%  100%  
	    New File  		     958	btn-prev.png  0%  100%  
	    New File  		    7219	btn-preview-web.png  0%  100%  
	    New File  		    8978	btn-preview.png  0%  100%  
	    New File  		    6976	btn-set.png  0%  100%  
	    New File  		   28477	btn-simple.png  0%  100%  
	    New File  		    2380	btn-yes.png  0%  100%  
	    New File  		     205	bul1.png  0%  100%  
	    New File  		      46	bul2.gif  0%  100%  
	    New File  		     240	bul3.png  0%  100%  
	    New File  		      74	bul4.gif  0%  100%  
	    New File  		     467	ico-invalidaing.png  0%  100%  
	    New File  		     437	ico-validaing.png  0%  100%  
	    New File  		    3189	img01.jpg  0%  100%  
	    New File  		    3533	img02.jpg  0%  100%  
	    New File  		    6205	img03.jpg  0%  100%  
	    New File  		    5029	img04.jpg  0%  100%  
	    New File  		    6113	img05.jpg  0%  100%  
	    New File  		    4408	img06.jpg  0%  100%  
	    New File  		    5924	img07.jpg  0%  100%  
	    New File  		    4535	img08.jpg  0%  100%  
	    New File  		   16018	img09.jpg  0%  100%  
	    New File  		    4173	img10.jpg  0%  100%  
	    New File  		    6618	img11.jpg  0%  100%  
	    New File  		    2113	loader.gif  0%  100%  
	    New File  		    1445	logo.gif  0%  100%  
	    New File  		      43	none.gif  0%  100%  
	    New File  		  304064	pbar-ani.gif  0%   43%   86%  100%  
	    New File  		    1026	pbar.gif  0%  100%  
	    New File  		     491	select-button.png  0%  100%  
	    New File  		     199	select-center.png  0%  100%  
	    New File  		     816	select-left-2.png  0%  100%  
	    New File  		     401	select-left.png  0%  100%  
	    New File  		     110	sep1.png  0%  100%  
	    New File  		     260	ui-bg_diagonals-thick_18_b81900_40x40.png  0%  100%  
	    New File  		     251	ui-bg_diagonals-thick_20_666666_40x40.png  0%  100%  
	    New File  		     178	ui-bg_flat_10_000000_40x100.png  0%  100%  
	    New File  		     104	ui-bg_glass_100_f6f6f6_1x400.png  0%  100%  
	    New File  		     125	ui-bg_glass_100_fdf5ce_1x400.png  0%  100%  
	    New File  		     105	ui-bg_glass_65_ffffff_1x400.png  0%  100%  
	    New File  		    3762	ui-bg_gloss-wave_35_f6a828_500x100.png  0%  100%  
	    New File  		      90	ui-bg_highlight-soft_100_eeeeee_1x100.png  0%  100%  
	    New File  		     129	ui-bg_highlight-soft_75_ffe45c_1x100.png  0%  100%  
	    New File  		    4369	ui-icons_222222_256x240.png  0%  100%  
	    New File  		    4369	ui-icons_228ef1_256x240.png  0%  100%  
	    New File  		    4369	ui-icons_ef8c08_256x240.png  0%  100%  
	    New File  		    4369	ui-icons_ffd27a_256x240.png  0%  100%  
	    New File  		    4369	ui-icons_ffffff_256x240.png  0%  100%  
	    New File  		    1207	zoom-in.png  0%  100%  
	  New Dir          4	C:\Users\matt\Documents\Visual Studio 2015\Projects\quiz3 (2)\packages\UmbracoCms.7.6.5\UmbracoFiles\Umbraco_Client\Installer\Js\
	    New File  		    7058	ie-png.js  0%  100%  
	    New File  		   62130	jquery.main.js  0%  100%  
	    New File  		   19146	jquery.ui.selectmenu.js  0%  100%  
	    New File  		    9543	PackageInstaller.js  0%  100%  
	  New Dir          1	C:\Users\matt\Documents\Visual Studio 2015\Projects\quiz3 (2)\packages\UmbracoCms.7.6.5\UmbracoFiles\Umbraco_Client\Jeditable\
	    New File  		   24034	jquery.jeditable.js  0%  100%  
	  New Dir          1	C:\Users\matt\Documents\Visual Studio 2015\Projects\quiz3 (2)\packages\UmbracoCms.7.6.5\UmbracoFiles\Umbraco_Client\MacroContainer\
	    New File  		     666	macroContainer.css  0%  100%  
	  New Dir          1	C:\Users\matt\Documents\Visual Studio 2015\Projects\quiz3 (2)\packages\UmbracoCms.7.6.5\UmbracoFiles\Umbraco_Client\MaskedInput\
	    New File  		    4028	jquery.maskedinput-1.3.min.js  0%  100%  
	  New Dir          1	C:\Users\matt\Documents\Visual Studio 2015\Projects\quiz3 (2)\packages\UmbracoCms.7.6.5\UmbracoFiles\Umbraco_Client\Menuicon\
	    New File  		     571	style.css  0%  100%  
	  New Dir          3	C:\Users\matt\Documents\Visual Studio 2015\Projects\quiz3 (2)\packages\UmbracoCms.7.6.5\UmbracoFiles\Umbraco_Client\Menuicon\Images\
	    New File  		     273	buttonbg.gif  0%  100%  
	    New File  		     273	buttonbgdown.gif  0%  100%  
	    New File  		     851	split.gif  0%  100%  
	  New Dir          5	C:\Users\matt\Documents\Visual Studio 2015\Projects\quiz3 (2)\packages\UmbracoCms.7.6.5\UmbracoFiles\Umbraco_Client\Modal\
	    New File  		   24893	jquery.simplemodal.1.4.1.custom.js  0%  100%  
	    New File  		   20746	modal.js  0%  100%  
	    New File  		     475	modalBackground.gif  0%  100%  
	    New File  		     151	modalGradiant.gif  0%  100%  
	    New File  		    1417	style.css  0%  100%  
	  New Dir          1	C:\Users\matt\Documents\Visual Studio 2015\Projects\quiz3 (2)\packages\UmbracoCms.7.6.5\UmbracoFiles\Umbraco_Client\Mousewheel\
	    New File  		    1638	jquery.mousewheel.js  0%  100%  
	  New Dir          2	C:\Users\matt\Documents\Visual Studio 2015\Projects\quiz3 (2)\packages\UmbracoCms.7.6.5\UmbracoFiles\Umbraco_Client\Panel\
	    New File  		     240	javascript.js  0%  100%  
	    New File  		    2608	style.css  0%  100%  
	  New Dir          6	C:\Users\matt\Documents\Visual Studio 2015\Projects\quiz3 (2)\packages\UmbracoCms.7.6.5\UmbracoFiles\Umbraco_Client\Panel\Images\
	    New File  		      98	panel_bg.gif  0%  100%  
	    New File  		      43	panel_boxfooter_bg.gif  0%  100%  
	    New File  		     162	panel_boxfooter_statusBar_bg.gif  0%  100%  
	    New File  		     164	panel_boxfooter_statusBar_h2_bg.gif  0%  100%  
	    New File  		     194	panel_boxhead_bg.gif  0%  100%  
	    New File  		     193	panel_boxhead_h2_bg.gif  0%  100%  
	  New Dir          2	C:\Users\matt\Documents\Visual Studio 2015\Projects\quiz3 (2)\packages\UmbracoCms.7.6.5\UmbracoFiles\Umbraco_Client\Preview\
	    New File  		    3508	previewModeBadge.png  0%  100%  
	    New File  		     169	umbracoPreview.css  0%  100%  
	  New Dir          2	C:\Users\matt\Documents\Visual Studio 2015\Projects\quiz3 (2)\packages\UmbracoCms.7.6.5\UmbracoFiles\Umbraco_Client\ProgressBar\
	    New File  		     795	javascript.js  0%  100%  
	    New File  		     524	style.css  0%  100%  
	  New Dir          3	C:\Users\matt\Documents\Visual Studio 2015\Projects\quiz3 (2)\packages\UmbracoCms.7.6.5\UmbracoFiles\Umbraco_Client\ProgressBar\Images\
	    New File  		     314	container_left.gif  0%  100%  
	    New File  		     102	container_right.gif  0%  100%  
	    New File  		     113	indicator.gif  0%  100%  
	  New Dir          1	C:\Users\matt\Documents\Visual Studio 2015\Projects\quiz3 (2)\packages\UmbracoCms.7.6.5\UmbracoFiles\Umbraco_Client\Propertypane\
	    New File  		    2000	style.css  0%  100%  
	  New Dir          2	C:\Users\matt\Documents\Visual Studio 2015\Projects\quiz3 (2)\packages\UmbracoCms.7.6.5\UmbracoFiles\Umbraco_Client\Propertypane\Images\
	    New File  		    9038	propertyBackground.gif  0%  100%  
	    New File  		     554	proppane_bg.png  0%  100%  
	  New Dir          1	C:\Users\matt\Documents\Visual Studio 2015\Projects\quiz3 (2)\packages\UmbracoCms.7.6.5\UmbracoFiles\Umbraco_Client\PunyCode\
	    New File  		    2802	punycode.min.js  0%  100%  
	  New Dir          2	C:\Users\matt\Documents\Visual Studio 2015\Projects\quiz3 (2)\packages\UmbracoCms.7.6.5\UmbracoFiles\Umbraco_Client\Scrollingmenu\
	    New File  		    2851	javascript.js  0%  100%  
	    New File  		     255	style.css  0%  100%  
	  New Dir          3	C:\Users\matt\Documents\Visual Studio 2015\Projects\quiz3 (2)\packages\UmbracoCms.7.6.5\UmbracoFiles\Umbraco_Client\Scrollingmenu\Images\
	    New File  		     834	arrawBack.gif  0%  100%  
	    New File  		     834	arrowForward.gif  0%  100%  
	    New File  		     183	background.gif  0%  100%  
	  New Dir          2	C:\Users\matt\Documents\Visual Studio 2015\Projects\quiz3 (2)\packages\UmbracoCms.7.6.5\UmbracoFiles\Umbraco_Client\Scrollingmenu\Images\Button\
	    New File  		     273	buttonbg.gif  0%  100%  
	    New File  		     273	buttonbgdown.gif  0%  100%  
	  New Dir          0	C:\Users\matt\Documents\Visual Studio 2015\Projects\quiz3 (2)\packages\UmbracoCms.7.6.5\UmbracoFiles\Umbraco_Client\SimpleEditor\
	  New Dir          3	C:\Users\matt\Documents\Visual Studio 2015\Projects\quiz3 (2)\packages\UmbracoCms.7.6.5\UmbracoFiles\Umbraco_Client\SimpleEditor\Images\
	    New File  		      78	bold.gif  0%  100%  
	    New File  		      73	italic.gif  0%  100%  
	    New File  		     108	link.gif  0%  100%  
	  New Dir          3	C:\Users\matt\Documents\Visual Studio 2015\Projects\quiz3 (2)\packages\UmbracoCms.7.6.5\UmbracoFiles\Umbraco_Client\Splitbutton\
	    New File  		    2245	InsertMacroSplitButton.js  0%  100%  
	    New File  		   18462	jquery.splitbutton.js  0%  100%  
	    New File  		    2773	splitbutton.css  0%  100%  
	  New Dir          2	C:\Users\matt\Documents\Visual Studio 2015\Projects\quiz3 (2)\packages\UmbracoCms.7.6.5\UmbracoFiles\Umbraco_Client\Splitbutton\Images\
	    New File  		     130	splitbutton_downarrow.png  0%  100%  
	    New File  		     149	splitbutton_hover.png  0%  100%  
	  New Dir          4	C:\Users\matt\Documents\Visual Studio 2015\Projects\quiz3 (2)\packages\UmbracoCms.7.6.5\UmbracoFiles\Umbraco_Client\Tablesorting\
	    New File  		   16523	jquery.tablesorter.min.js  0%  100%  
	    New File  		   18249	tableDragAndDrop.js  0%  100%  
	    New File  		   23499	tableFilter.js  0%  100%  
	    New File  		   12838	tableFilterUtill.js  0%  100%  
	  New Dir          3	C:\Users\matt\Documents\Visual Studio 2015\Projects\quiz3 (2)\packages\UmbracoCms.7.6.5\UmbracoFiles\Umbraco_Client\Tablesorting\img\
	    New File  		     830	asc.gif  0%  100%  
	    New File  		      73	bg.gif  0%  100%  
	    New File  		     833	desc.gif  0%  100%  
	  New Dir          3	C:\Users\matt\Documents\Visual Studio 2015\Projects\quiz3 (2)\packages\UmbracoCms.7.6.5\UmbracoFiles\Umbraco_Client\Tabview\
	    New File  		    3721	javascript.js  0%  100%  
	    New File  		    1589	oldstyle.css  0%  100%  
	    New File  		    2633	style.css  0%  100%  
	  New Dir          7	C:\Users\matt\Documents\Visual Studio 2015\Projects\quiz3 (2)\packages\UmbracoCms.7.6.5\UmbracoFiles\Umbraco_Client\Tabview\Images\
	    New File  		     169	background.gif  0%  100%  
	    New File  		      73	bg.gif  0%  100%  
	    New File  		      43	footer_bg.gif  0%  100%  
	    New File  		     162	footer_statusBar_bg.gif  0%  100%  
	    New File  		     164	footer_statusBar_h2_bg.gif  0%  100%  
	    New File  		    1343	left_both.gif  0%  100%  
	    New File  		    3913	right_both.gif  0%  100%  
	  New Dir          0	C:\Users\matt\Documents\Visual Studio 2015\Projects\quiz3 (2)\packages\UmbracoCms.7.6.5\UmbracoFiles\Umbraco_Client\Tags\
	  New Dir          1	C:\Users\matt\Documents\Visual Studio 2015\Projects\quiz3 (2)\packages\UmbracoCms.7.6.5\UmbracoFiles\Umbraco_Client\Tags\Css\
	    New File  		    1117	jquery.tagsinput.css  0%  100%  
	  New Dir          2	C:\Users\matt\Documents\Visual Studio 2015\Projects\quiz3 (2)\packages\UmbracoCms.7.6.5\UmbracoFiles\Umbraco_Client\Tags\Js\
	    New File  		   11891	jquery.tagsinput.js  0%  100%  
	    New File  		    6400	jquery.tagsinput.min.js  0%  100%  
	  New Dir          4	C:\Users\matt\Documents\Visual Studio 2015\Projects\quiz3 (2)\packages\UmbracoCms.7.6.5\UmbracoFiles\Umbraco_Client\Tinymce3\
	    New File  		   26930	license.txt  0%  100%  
	    New File  		  232483	tiny_mce.js  0%   56%  100%  
	    New File  		    4912	tiny_mce_popup.js  0%  100%  
	    New File  		  524361	tiny_mce_src.js  0%   49%   99%  100%  
	  New Dir         16	C:\Users\matt\Documents\Visual Studio 2015\Projects\quiz3 (2)\packages\UmbracoCms.7.6.5\UmbracoFiles\Umbraco_Client\Tinymce3\Langs\
	    New File  		    7049	da.js  0%  100%  
	    New File  		    7251	de.js  0%  100%  
	    New File  		    6515	en.js  0%  100%  
	    New File  		    6518	en_us.js  0%  100%  
	    New File  		    7711	fi.js  0%  100%  
	    New File  		    7765	fr.js  0%  100%  
	    New File  		   15279	he.js  0%  100%  
	    New File  		    7010	it.js  0%  100%  
	    New File  		   11301	ja.js  0%  100%  
	    New File  		    6635	nl.js  0%  100%  
	    New File  		    6958	no.js  0%  100%  
	    New File  		    7897	pl.js  0%  100%  
	    New File  		    7053	pt.js  0%  100%  
	    New File  		   19794	ru.js  0%  100%  
	    New File  		    6966	sv.js  0%  100%  
	    New File  		    8432	zh.js  0%  100%  
	  New Dir          0	C:\Users\matt\Documents\Visual Studio 2015\Projects\quiz3 (2)\packages\UmbracoCms.7.6.5\UmbracoFiles\Umbraco_Client\Tinymce3\Plugins\
	  New Dir          3	C:\Users\matt\Documents\Visual Studio 2015\Projects\quiz3 (2)\packages\UmbracoCms.7.6.5\UmbracoFiles\Umbraco_Client\Tinymce3\Plugins\Advhr\
	    New File  		     847	editor_plugin.js  0%  100%  
	    New File  		    1442	editor_plugin_src.js  0%  100%  
	    New File  		    2422	rule.htm  0%  100%  
	  New Dir          1	C:\Users\matt\Documents\Visual Studio 2015\Projects\quiz3 (2)\packages\UmbracoCms.7.6.5\UmbracoFiles\Umbraco_Client\Tinymce3\Plugins\Advhr\Css\
	    New File  		     240	advhr.css  0%  100%  
	  New Dir          1	C:\Users\matt\Documents\Visual Studio 2015\Projects\quiz3 (2)\packages\UmbracoCms.7.6.5\UmbracoFiles\Umbraco_Client\Tinymce3\Plugins\Advhr\Js\
	    New File  		    1322	rule.js  0%  100%  
	  New Dir         16	C:\Users\matt\Documents\Visual Studio 2015\Projects\quiz3 (2)\packages\UmbracoCms.7.6.5\UmbracoFiles\Umbraco_Client\Tinymce3\Plugins\Advhr\Langs\
	    New File  		     127	da_dlg.js  0%  100%  
	    New File  		     129	de_dlg.js  0%  100%  
	    New File  		     117	en_dlg.js  0%  100%  
	    New File  		     120	en_us_dlg.js  0%  100%  
	    New File  		     128	fi_dlg.js  0%  100%  
	    New File  		     129	fr_dlg.js  0%  100%  
	    New File  		     225	he_dlg.js  0%  100%  
	    New File  		     138	it_dlg.js  0%  100%  
	    New File  		     146	ja_dlg.js  0%  100%  
	    New File  		     126	nl_dlg.js  0%  100%  
	    New File  		     127	no_dlg.js  0%  100%  
	    New File  		     150	pl_dlg.js  0%  100%  
	    New File  		     120	pt_dlg.js  0%  100%  
	    New File  		     342	ru_dlg.js  0%  100%  
	    New File  		     125	sv_dlg.js  0%  100%  
	    New File  		     142	zh_dlg.js  0%  100%  
	  New Dir          3	C:\Users\matt\Documents\Visual Studio 2015\Projects\quiz3 (2)\packages\UmbracoCms.7.6.5\UmbracoFiles\Umbraco_Client\Tinymce3\Plugins\Advimage\
	    New File  		     791	editor_plugin.js  0%  100%  
	    New File  		    1391	editor_plugin_src.js  0%  100%  
	    New File  		   12086	image.htm  0%  100%  
	  New Dir          1	C:\Users\matt\Documents\Visual Studio 2015\Projects\quiz3 (2)\packages\UmbracoCms.7.6.5\UmbracoFiles\Umbraco_Client\Tinymce3\Plugins\Advimage\Css\
	    New File  		     672	advimage.css  0%  100%  
	  New Dir          1	C:\Users\matt\Documents\Visual Studio 2015\Projects\quiz3 (2)\packages\UmbracoCms.7.6.5\UmbracoFiles\Umbraco_Client\Tinymce3\Plugins\Advimage\Img\
	    New File  		    1624	sample.gif  0%  100%  
	  New Dir          1	C:\Users\matt\Documents\Visual Studio 2015\Projects\quiz3 (2)\packages\UmbracoCms.7.6.5\UmbracoFiles\Umbraco_Client\Tinymce3\Plugins\Advimage\Js\
	    New File  		   12909	image.js  0%  100%  
	  New Dir         16	C:\Users\matt\Documents\Visual Studio 2015\Projects\quiz3 (2)\packages\UmbracoCms.7.6.5\UmbracoFiles\Umbraco_Client\Tinymce3\Plugins\Advimage\Langs\
	    New File  		    1352	da_dlg.js  0%  100%  
	    New File  		    1363	de_dlg.js  0%  100%  
	    New File  		    1270	en_dlg.js  0%  100%  
	    New File  		    1273	en_us_dlg.js  0%  100%  
	    New File  		    1387	fi_dlg.js  0%  100%  
	    New File  		    1508	fr_dlg.js  0%  100%  
	    New File  		    2771	he_dlg.js  0%  100%  
	    New File  		    1467	it_dlg.js  0%  100%  
	    New File  		    2319	ja_dlg.js  0%  100%  
	    New File  		    1267	nl_dlg.js  0%  100%  
	    New File  		    1312	no_dlg.js  0%  100%  
	    New File  		    1467	pl_dlg.js  0%  100%  
	    New File  		    1374	pt_dlg.js  0%  100%  
	    New File  		    4924	ru_dlg.js  0%  100%  
	    New File  		    1266	sv_dlg.js  0%  100%  
	    New File  		    1761	zh_dlg.js  0%  100%  
	  New Dir          3	C:\Users\matt\Documents\Visual Studio 2015\Projects\quiz3 (2)\packages\UmbracoCms.7.6.5\UmbracoFiles\Umbraco_Client\Tinymce3\Plugins\Advlink\
	    New File  		     973	editor_plugin.js  0%  100%  
	    New File  		    1633	editor_plugin_src.js  0%  100%  
	    New File  		   16123	link.htm  0%  100%  
	  New Dir          1	C:\Users\matt\Documents\Visual Studio 2015\Projects\quiz3 (2)\packages\UmbracoCms.7.6.5\UmbracoFiles\Umbraco_Client\Tinymce3\Plugins\Advlink\Css\
	    New File  		     480	advlink.css  0%  100%  
	  New Dir          1	C:\Users\matt\Documents\Visual Studio 2015\Projects\quiz3 (2)\packages\UmbracoCms.7.6.5\UmbracoFiles\Umbraco_Client\Tinymce3\Plugins\Advlink\Js\
	    New File  		   17341	advlink.js  0%  100%  
	  New Dir         16	C:\Users\matt\Documents\Visual Studio 2015\Projects\quiz3 (2)\packages\UmbracoCms.7.6.5\UmbracoFiles\Umbraco_Client\Tinymce3\Plugins\Advlink\Langs\
	    New File  		    1944	da_dlg.js  0%  100%  
	    New File  		    1955	de_dlg.js  0%  100%  
	    New File  		    1667	en_dlg.js  0%  100%  
	    New File  		    1670	en_us_dlg.js  0%  100%  
	    New File  		    1985	fi_dlg.js  0%  100%  
	    New File  		    2120	fr_dlg.js  0%  100%  
	    New File  		    4332	he_dlg.js  0%  100%  
	    New File  		    1864	it_dlg.js  0%  100%  
	    New File  		    3274	ja_dlg.js  0%  100%  
	    New File  		    1710	nl_dlg.js  0%  100%  
	    New File  		    1871	no_dlg.js  0%  100%  
	    New File  		    2012	pl_dlg.js  0%  100%  
	    New File  		    1962	pt_dlg.js  0%  100%  
	    New File  		    5662	ru_dlg.js  0%  100%  
	    New File  		    1846	sv_dlg.js  0%  100%  
	    New File  		    2326	zh_dlg.js  0%  100%  
	  New Dir          2	C:\Users\matt\Documents\Visual Studio 2015\Projects\quiz3 (2)\packages\UmbracoCms.7.6.5\UmbracoFiles\Umbraco_Client\Tinymce3\Plugins\Advlist\
	    New File  		    2324	editor_plugin.js  0%  100%  
	    New File  		    4726	editor_plugin_src.js  0%  100%  
	  New Dir          2	C:\Users\matt\Documents\Visual Studio 2015\Projects\quiz3 (2)\packages\UmbracoCms.7.6.5\UmbracoFiles\Umbraco_Client\Tinymce3\Plugins\Autolink\
	    New File  		    2355	editor_plugin.js  0%  100%  
	    New File  		    5492	editor_plugin_src.js  0%  100%  
	  New Dir          2	C:\Users\matt\Documents\Visual Studio 2015\Projects\quiz3 (2)\packages\UmbracoCms.7.6.5\UmbracoFiles\Umbraco_Client\Tinymce3\Plugins\Autoresize\
	    New File  		    1506	editor_plugin.js  0%  100%  
	    New File  		    4158	editor_plugin_src.js  0%  100%  
	  New Dir          2	C:\Users\matt\Documents\Visual Studio 2015\Projects\quiz3 (2)\packages\UmbracoCms.7.6.5\UmbracoFiles\Umbraco_Client\Tinymce3\Plugins\Autosave\
	    New File  		    3584	editor_plugin.js  0%  100%  
	    New File  		   13766	editor_plugin_src.js  0%  100%  
	  New Dir          2	C:\Users\matt\Documents\Visual Studio 2015\Projects\quiz3 (2)\packages\UmbracoCms.7.6.5\UmbracoFiles\Umbraco_Client\Tinymce3\Plugins\Autosave\Langs\
	    New File  		     256	en.js  0%  100%  
	    New File  		     259	en_us.js  0%  100%  
	  New Dir          2	C:\Users\matt\Documents\Visual Studio 2015\Projects\quiz3 (2)\packages\UmbracoCms.7.6.5\UmbracoFiles\Umbraco_Client\Tinymce3\Plugins\Bbcode\
	    New File  		    3231	editor_plugin.js  0%  100%  
	    New File  		    4361	editor_plugin_src.js  0%  100%  
	  New Dir          2	C:\Users\matt\Documents\Visual Studio 2015\Projects\quiz3 (2)\packages\UmbracoCms.7.6.5\UmbracoFiles\Umbraco_Client\Tinymce3\Plugins\Contextmenu\
	    New File  		    2540	editor_plugin.js  0%  100%  
	    New File  		    5227	editor_plugin_src.js  0%  100%  
	  New Dir          2	C:\Users\matt\Documents\Visual Studio 2015\Projects\quiz3 (2)\packages\UmbracoCms.7.6.5\UmbracoFiles\Umbraco_Client\Tinymce3\Plugins\Directionality\
	    New File  		    1259	editor_plugin.js  0%  100%  
	    New File  		    2189	editor_plugin_src.js  0%  100%  
	  New Dir          3	C:\Users\matt\Documents\Visual Studio 2015\Projects\quiz3 (2)\packages\UmbracoCms.7.6.5\UmbracoFiles\Umbraco_Client\Tinymce3\Plugins\Emotions\
	    New File  		     676	editor_plugin.js  0%  100%  
	    New File  		    1220	editor_plugin_src.js  0%  100%  
	    New File  		    5972	emotions.htm  0%  100%  
	  New Dir         16	C:\Users\matt\Documents\Visual Studio 2015\Projects\quiz3 (2)\packages\UmbracoCms.7.6.5\UmbracoFiles\Umbraco_Client\Tinymce3\Plugins\Emotions\Img\
	    New File  		     354	smiley-cool.gif  0%  100%  
	    New File  		     329	smiley-cry.gif  0%  100%  
	    New File  		     331	smiley-embarassed.gif  0%  100%  
	    New File  		     342	smiley-foot-in-mouth.gif  0%  100%  
	    New File  		     340	smiley-frown.gif  0%  100%  
	    New File  		     336	smiley-innocent.gif  0%  100%  
	    New File  		     338	smiley-kiss.gif  0%  100%  
	    New File  		     343	smiley-laughing.gif  0%  100%  
	    New File  		     321	smiley-money-mouth.gif  0%  100%  
	    New File  		     323	smiley-sealed.gif  0%  100%  
	    New File  		     344	smiley-smile.gif  0%  100%  
	    New File  		     338	smiley-surprised.gif  0%  100%  
	    New File  		     328	smiley-tongue-out.gif  0%  100%  
	    New File  		     337	smiley-undecided.gif  0%  100%  
	    New File  		     350	smiley-wink.gif  0%  100%  
	    New File  		     336	smiley-yell.gif  0%  100%  
	  New Dir          1	C:\Users\matt\Documents\Visual Studio 2015\Projects\quiz3 (2)\packages\UmbracoCms.7.6.5\UmbracoFiles\Umbraco_Client\Tinymce3\Plugins\Emotions\Js\
	    New File  		    1120	emotions.js  0%  100%  
	  New Dir         16	C:\Users\matt\Documents\Visual Studio 2015\Projects\quiz3 (2)\packages\UmbracoCms.7.6.5\UmbracoFiles\Umbraco_Client\Tinymce3\Plugins\Emotions\Langs\
	    New File  		     463	da_dlg.js  0%  100%  
	    New File  		     478	de_dlg.js  0%  100%  
	    New File  		     421	en_dlg.js  0%  100%  
	    New File  		     424	en_us_dlg.js  0%  100%  
	    New File  		     532	fi_dlg.js  0%  100%  
	    New File  		     513	fr_dlg.js  0%  100%  
	    New File  		     999	he_dlg.js  0%  100%  
	    New File  		     472	it_dlg.js  0%  100%  
	    New File  		     738	ja_dlg.js  0%  100%  
	    New File  		     459	nl_dlg.js  0%  100%  
	    New File  		     446	no_dlg.js  0%  100%  
	    New File  		     529	pl_dlg.js  0%  100%  
	    New File  		     468	pt_dlg.js  0%  100%  
	    New File  		    1380	ru_dlg.js  0%  100%  
	    New File  		     496	sv_dlg.js  0%  100%  
	    New File  		     456	zh_dlg.js  0%  100%  
	  New Dir          3	C:\Users\matt\Documents\Visual Studio 2015\Projects\quiz3 (2)\packages\UmbracoCms.7.6.5\UmbracoFiles\Umbraco_Client\Tinymce3\Plugins\Example\
	    New File  		     908	dialog.htm  0%  100%  
	    New File  		     860	editor_plugin.js  0%  100%  
	    New File  		    2988	editor_plugin_src.js  0%  100%  
	  New Dir          1	C:\Users\matt\Documents\Visual Studio 2015\Projects\quiz3 (2)\packages\UmbracoCms.7.6.5\UmbracoFiles\Umbraco_Client\Tinymce3\Plugins\Example\Img\
	    New File  		      87	example.gif  0%  100%  
	  New Dir          1	C:\Users\matt\Documents\Visual Studio 2015\Projects\quiz3 (2)\packages\UmbracoCms.7.6.5\UmbracoFiles\Umbraco_Client\Tinymce3\Plugins\Example\Js\
	    New File  		     609	dialog.js  0%  100%  
	  New Dir          2	C:\Users\matt\Documents\Visual Studio 2015\Projects\quiz3 (2)\packages\UmbracoCms.7.6.5\UmbracoFiles\Umbraco_Client\Tinymce3\Plugins\Example\Langs\
	    New File  		      79	en.js  0%  100%  
	    New File  		      82	en_dlg.js  0%  100%  
	  New Dir          2	C:\Users\matt\Documents\Visual Studio 2015\Projects\quiz3 (2)\packages\UmbracoCms.7.6.5\UmbracoFiles\Umbraco_Client\Tinymce3\Plugins\example_dependency\
	    New File  		     419	editor_plugin.js  0%  100%  
	    New File  		    1885	editor_plugin_src.js  0%  100%  
	  New Dir          3	C:\Users\matt\Documents\Visual Studio 2015\Projects\quiz3 (2)\packages\UmbracoCms.7.6.5\UmbracoFiles\Umbraco_Client\Tinymce3\Plugins\Fullpage\
	    New File  		    6322	editor_plugin.js  0%  100%  
	    New File  		   11568	editor_plugin_src.js  0%  100%  
	    New File  		   10754	fullpage.htm  0%  100%  
	  New Dir          1	C:\Users\matt\Documents\Visual Studio 2015\Projects\quiz3 (2)\packages\UmbracoCms.7.6.5\UmbracoFiles\Umbraco_Client\Tinymce3\Plugins\Fullpage\Css\
	    New File  		    2188	fullpage.css  0%  100%  
	  New Dir          1	C:\Users\matt\Documents\Visual Studio 2015\Projects\quiz3 (2)\packages\UmbracoCms.7.6.5\UmbracoFiles\Umbraco_Client\Tinymce3\Plugins\Fullpage\Js\
	    New File  		    8164	fullpage.js  0%  100%  
	  New Dir         16	C:\Users\matt\Documents\Visual Studio 2015\Projects\quiz3 (2)\packages\UmbracoCms.7.6.5\UmbracoFiles\Umbraco_Client\Tinymce3\Plugins\Fullpage\Langs\
	    New File  		    2347	da_dlg.js  0%  100%  
	    New File  		    2469	de_dlg.js  0%  100%  
	    New File  		    2297	en_dlg.js  0%  100%  
	    New File  		    2300	en_us_dlg.js  0%  100%  
	    New File  		    2541	fi_dlg.js  0%  100%  
	    New File  		    2864	fr_dlg.js  0%  100%  
	    New File  		    4260	he_dlg.js  0%  100%  
	    New File  		    2520	it_dlg.js  0%  100%  
	    New File  		    3802	ja_dlg.js  0%  100%  
	    New File  		    2365	nl_dlg.js  0%  100%  
	    New File  		    2359	no_dlg.js  0%  100%  
	    New File  		    2712	pl_dlg.js  0%  100%  
	    New File  		    2387	pt_dlg.js  0%  100%  
	    New File  		    6193	ru_dlg.js  0%  100%  
	    New File  		    2499	sv_dlg.js  0%  100%  
	    New File  		    2863	zh_dlg.js  0%  100%  
	  New Dir          3	C:\Users\matt\Documents\Visual Studio 2015\Projects\quiz3 (2)\packages\UmbracoCms.7.6.5\UmbracoFiles\Umbraco_Client\Tinymce3\Plugins\Fullscreen\
	    New File  		    4422	editor_plugin.js  0%  100%  
	    New File  		    8222	editor_plugin_src.js  0%  100%  
	    New File  		    3655	fullscreen.htm  0%  100%  
	  New Dir          2	C:\Users\matt\Documents\Visual Studio 2015\Projects\quiz3 (2)\packages\UmbracoCms.7.6.5\UmbracoFiles\Umbraco_Client\Tinymce3\Plugins\Iespell\
	    New File  		     909	editor_plugin.js  0%  100%  
	    New File  		    1484	editor_plugin_src.js  0%  100%  
	  New Dir          3	C:\Users\matt\Documents\Visual Studio 2015\Projects\quiz3 (2)\packages\UmbracoCms.7.6.5\UmbracoFiles\Umbraco_Client\Tinymce3\Plugins\Inlinepopups\
	    New File  		   11928	editor_plugin.js  0%  100%  
	    New File  		   19657	editor_plugin_src.js  0%  100%  
	    New File  		   12878	template.htm  0%  100%  
	  New Dir          0	C:\Users\matt\Documents\Visual Studio 2015\Projects\quiz3 (2)\packages\UmbracoCms.7.6.5\UmbracoFiles\Umbraco_Client\Tinymce3\Plugins\Inlinepopups\Skins\
	  New Dir          1	C:\Users\matt\Documents\Visual Studio 2015\Projects\quiz3 (2)\packages\UmbracoCms.7.6.5\UmbracoFiles\Umbraco_Client\Tinymce3\Plugins\Inlinepopups\Skins\Clearlooks2\
	    New File  		    6715	window.css  0%  100%  
	  New Dir          7	C:\Users\matt\Documents\Visual Studio 2015\Projects\quiz3 (2)\packages\UmbracoCms.7.6.5\UmbracoFiles\Umbraco_Client\Tinymce3\Plugins\Inlinepopups\Skins\Clearlooks2\Img\
	    New File  		     810	alert.gif  0%  100%  
	    New File  		     272	button.gif  0%  100%  
	    New File  		    1195	buttons.gif  0%  100%  
	    New File  		     907	confirm.gif  0%  100%  
	    New File  		     909	corners.gif  0%  100%  
	    New File  		     769	horizontal.gif  0%  100%  
	    New File  		      84	vertical.gif  0%  100%  
	  New Dir          1	C:\Users\matt\Documents\Visual Studio 2015\Projects\quiz3 (2)\packages\UmbracoCms.7.6.5\UmbracoFiles\Umbraco_Client\Tinymce3\Plugins\Inlinepopups\Skins\Umbraco\
	    New File  		    4816	window.css  0%  100%  
	  New Dir          8	C:\Users\matt\Documents\Visual Studio 2015\Projects\quiz3 (2)\packages\UmbracoCms.7.6.5\UmbracoFiles\Umbraco_Client\Tinymce3\Plugins\Inlinepopups\Skins\Umbraco\Img\
	    New File  		     818	alert.gif  0%  100%  
	    New File  		     280	button.gif  0%  100%  
	    New File  		    1195	buttons.gif  0%  100%  
	    New File  		    3728	close.png  0%  100%  
	    New File  		     915	confirm.gif  0%  100%  
	    New File  		     569	corners.gif  0%  100%  
	    New File  		     436	horizontal.gif  0%  100%  
	    New File  		     140	vertical.gif  0%  100%  
	  New Dir          2	C:\Users\matt\Documents\Visual Studio 2015\Projects\quiz3 (2)\packages\UmbracoCms.7.6.5\UmbracoFiles\Umbraco_Client\Tinymce3\Plugins\Insertdatetime\
	    New File  		    1931	editor_plugin.js  0%  100%  
	    New File  		    2860	editor_plugin_src.js  0%  100%  
	  New Dir          2	C:\Users\matt\Documents\Visual Studio 2015\Projects\quiz3 (2)\packages\UmbracoCms.7.6.5\UmbracoFiles\Umbraco_Client\Tinymce3\Plugins\Layer\
	    New File  		    4052	editor_plugin.js  0%  100%  
	    New File  		    6747	editor_plugin_src.js  0%  100%  
	  New Dir          2	C:\Users\matt\Documents\Visual Studio 2015\Projects\quiz3 (2)\packages\UmbracoCms.7.6.5\UmbracoFiles\Umbraco_Client\Tinymce3\Plugins\Legacyoutput\
	    New File  		    2086	editor_plugin.js  0%  100%  
	    New File  		    5077	editor_plugin_src.js  0%  100%  
	  New Dir          2	C:\Users\matt\Documents\Visual Studio 2015\Projects\quiz3 (2)\packages\UmbracoCms.7.6.5\UmbracoFiles\Umbraco_Client\Tinymce3\Plugins\Lists\
	    New File  		   14380	editor_plugin.js  0%  100%  
	    New File  		   32531	editor_plugin_src.js  0%  100%  
	  New Dir          4	C:\Users\matt\Documents\Visual Studio 2015\Projects\quiz3 (2)\packages\UmbracoCms.7.6.5\UmbracoFiles\Umbraco_Client\Tinymce3\Plugins\Media\
	    New File  		   12655	editor_plugin.js  0%  100%  
	    New File  		   26419	editor_plugin_src.js  0%  100%  
	    New File  		   38852	media.htm  0%  100%  
	    New File  		   19980	moxieplayer.swf  0%  100%  
	  New Dir          1	C:\Users\matt\Documents\Visual Studio 2015\Projects\quiz3 (2)\packages\UmbracoCms.7.6.5\UmbracoFiles\Umbraco_Client\Tinymce3\Plugins\Media\Css\
	    New File  		    1357	media.css  0%  100%  
	  New Dir          2	C:\Users\matt\Documents\Visual Studio 2015\Projects\quiz3 (2)\packages\UmbracoCms.7.6.5\UmbracoFiles\Umbraco_Client\Tinymce3\Plugins\Media\Js\
	    New File  		    1938	embed.js  0%  100%  
	    New File  		   16473	media.js  0%  100%  
	  New Dir         18	C:\Users\matt\Documents\Visual Studio 2015\Projects\quiz3 (2)\packages\UmbracoCms.7.6.5\UmbracoFiles\Umbraco_Client\Tinymce3\Plugins\Media\Langs\
	    New File  		    3077	da_dlg.js  0%  100%  
	    New File  		    3164	de_dlg.js  0%  100%  
	    New File  		    2815	en_dlg.js  0%  100%  
	    New File  		    2818	en_us_dlg.js  0%  100%  
	    New File  		    3018	es_dlg.js  0%  100%  
	    New File  		    3314	fi_dlg.js  0%  100%  
	    New File  		    3302	fr_dlg.js  0%  100%  
	    New File  		    5399	he_dlg.js  0%  100%  
	    New File  		    3062	it_dlg.js  0%  100%  
	    New File  		    5047	ja_dlg.js  0%  100%  
	    New File  		    2734	ko_dlg.js  0%  100%  
	    New File  		    2949	nl_dlg.js  0%  100%  
	    New File  		    3047	no_dlg.js  0%  100%  
	    New File  		    3259	pl_dlg.js  0%  100%  
	    New File  		    3259	pt_dlg.js  0%  100%  
	    New File  		    9433	ru_dlg.js  0%  100%  
	    New File  		    2962	sv_dlg.js  0%  100%  
	    New File  		    3445	zh_dlg.js  0%  100%  
	  New Dir          2	C:\Users\matt\Documents\Visual Studio 2015\Projects\quiz3 (2)\packages\UmbracoCms.7.6.5\UmbracoFiles\Umbraco_Client\Tinymce3\Plugins\Nonbreaking\
	    New File  		     944	editor_plugin.js  0%  100%  
	    New File  		    1521	editor_plugin_src.js  0%  100%  
	  New Dir          2	C:\Users\matt\Documents\Visual Studio 2015\Projects\quiz3 (2)\packages\UmbracoCms.7.6.5\UmbracoFiles\Umbraco_Client\Tinymce3\Plugins\Noneditable\
	    New File  		    5431	editor_plugin.js  0%  100%  
	    New File  		   17154	editor_plugin_src.js  0%  100%  
	  New Dir          2	C:\Users\matt\Documents\Visual Studio 2015\Projects\quiz3 (2)\packages\UmbracoCms.7.6.5\UmbracoFiles\Umbraco_Client\Tinymce3\Plugins\Pagebreak\
	    New File  		    1402	editor_plugin.js  0%  100%  
	    New File  		    2161	editor_plugin_src.js  0%  100%  
	  New Dir          4	C:\Users\matt\Documents\Visual Studio 2015\Projects\quiz3 (2)\packages\UmbracoCms.7.6.5\UmbracoFiles\Umbraco_Client\Tinymce3\Plugins\Paste\
	    New File  		   13713	editor_plugin.js  0%  100%  
	    New File  		   31674	editor_plugin_src.js  0%  100%  
	    New File  		    1209	pastetext.htm  0%  100%  
	    New File  		     783	pasteword.htm  0%  100%  
	  New Dir          2	C:\Users\matt\Documents\Visual Studio 2015\Projects\quiz3 (2)\packages\UmbracoCms.7.6.5\UmbracoFiles\Umbraco_Client\Tinymce3\Plugins\Paste\Js\
	    New File  		     884	pastetext.js  0%  100%  
	    New File  		    1647	pasteword.js  0%  100%  
	  New Dir         16	C:\Users\matt\Documents\Visual Studio 2015\Projects\quiz3 (2)\packages\UmbracoCms.7.6.5\UmbracoFiles\Umbraco_Client\Tinymce3\Plugins\Paste\Langs\
	    New File  		     227	da_dlg.js  0%  100%  
	    New File  		     262	de_dlg.js  0%  100%  
	    New File  		     226	en_dlg.js  0%  100%  
	    New File  		     229	en_us_dlg.js  0%  100%  
	    New File  		     245	fi_dlg.js  0%  100%  
	    New File  		     276	fr_dlg.js  0%  100%  
	    New File  		     610	he_dlg.js  0%  100%  
	    New File  		     252	it_dlg.js  0%  100%  
	    New File  		     517	ja_dlg.js  0%  100%  
	    New File  		     209	nl_dlg.js  0%  100%  
	    New File  		     256	no_dlg.js  0%  100%  
	    New File  		     263	pl_dlg.js  0%  100%  
	    New File  		     190	pt_dlg.js  0%  100%  
	    New File  		     633	ru_dlg.js  0%  100%  
	    New File  		     284	sv_dlg.js  0%  100%  
	    New File  		     258	zh_dlg.js  0%  100%  
	  New Dir          4	C:\Users\matt\Documents\Visual Studio 2015\Projects\quiz3 (2)\packages\UmbracoCms.7.6.5\UmbracoFiles\Umbraco_Client\Tinymce3\Plugins\Preview\
	    New File  		    1051	editor_plugin.js  0%  100%  
	    New File  		    1641	editor_plugin_src.js  0%  100%  
	    New File  		     731	example.html  0%  100%  
	    New File  		     630	preview.html  0%  100%  
	  New Dir          1	C:\Users\matt\Documents\Visual Studio 2015\Projects\quiz3 (2)\packages\UmbracoCms.7.6.5\UmbracoFiles\Umbraco_Client\Tinymce3\Plugins\Preview\Jscripts\
	    New File  		    1938	embed.js  0%  100%  
	  New Dir          2	C:\Users\matt\Documents\Visual Studio 2015\Projects\quiz3 (2)\packages\UmbracoCms.7.6.5\UmbracoFiles\Umbraco_Client\Tinymce3\Plugins\Print\
	    New File  		     492	editor_plugin.js  0%  100%  
	    New File  		     881	editor_plugin_src.js  0%  100%  
	  New Dir          2	C:\Users\matt\Documents\Visual Studio 2015\Projects\quiz3 (2)\packages\UmbracoCms.7.6.5\UmbracoFiles\Umbraco_Client\Tinymce3\Plugins\Save\
	    New File  		    1569	editor_plugin.js  0%  100%  
	    New File  		    2529	editor_plugin_src.js  0%  100%  
	  New Dir          3	C:\Users\matt\Documents\Visual Studio 2015\Projects\quiz3 (2)\packages\UmbracoCms.7.6.5\UmbracoFiles\Umbraco_Client\Tinymce3\Plugins\Searchreplace\
	    New File  		    1046	editor_plugin.js  0%  100%  
	    New File  		    1795	editor_plugin_src.js  0%  100%  
	    New File  		    5334	searchreplace.htm  0%  100%  
	  New Dir          1	C:\Users\matt\Documents\Visual Studio 2015\Projects\quiz3 (2)\packages\UmbracoCms.7.6.5\UmbracoFiles\Umbraco_Client\Tinymce3\Plugins\Searchreplace\Css\
	    New File  		     176	searchreplace.css  0%  100%  
	  New Dir          1	C:\Users\matt\Documents\Visual Studio 2015\Projects\quiz3 (2)\packages\UmbracoCms.7.6.5\UmbracoFiles\Umbraco_Client\Tinymce3\Plugins\Searchreplace\Js\
	    New File  		    3878	searchreplace.js  0%  100%  
	  New Dir         16	C:\Users\matt\Documents\Visual Studio 2015\Projects\quiz3 (2)\packages\UmbracoCms.7.6.5\UmbracoFiles\Umbraco_Client\Tinymce3\Plugins\Searchreplace\Langs\
	    New File  		     461	da_dlg.js  0%  100%  
	    New File  		     522	de_dlg.js  0%  100%  
	    New File  		     445	en_dlg.js  0%  100%  
	    New File  		     448	en_us_dlg.js  0%  100%  
	    New File  		     468	fi_dlg.js  0%  100%  
	    New File  		     584	fr_dlg.js  0%  100%  
	    New File  		    1056	he_dlg.js  0%  100%  
	    New File  		     473	it_dlg.js  0%  100%  
	    New File  		     755	ja_dlg.js  0%  100%  
	    New File  		     488	nl_dlg.js  0%  100%  
	    New File  		     475	no_dlg.js  0%  100%  
	    New File  		     602	pl_dlg.js  0%  100%  
	    New File  		     489	pt_dlg.js  0%  100%  
	    New File  		    1262	ru_dlg.js  0%  100%  
	    New File  		     535	sv_dlg.js  0%  100%  
	    New File  		     633	zh_dlg.js  0%  100%  
	  New Dir          2	C:\Users\matt\Documents\Visual Studio 2015\Projects\quiz3 (2)\packages\UmbracoCms.7.6.5\UmbracoFiles\Umbraco_Client\Tinymce3\Plugins\Spellchecker\
	    New File  		    7217	editor_plugin.js  0%  100%  
	    New File  		   12791	editor_plugin_src.js  0%  100%  
	  New Dir          1	C:\Users\matt\Documents\Visual Studio 2015\Projects\quiz3 (2)\packages\UmbracoCms.7.6.5\UmbracoFiles\Umbraco_Client\Tinymce3\Plugins\Spellchecker\Css\
	    New File  		      98	content.css  0%  100%  
	  New Dir          1	C:\Users\matt\Documents\Visual Studio 2015\Projects\quiz3 (2)\packages\UmbracoCms.7.6.5\UmbracoFiles\Umbraco_Client\Tinymce3\Plugins\Spellchecker\Img\
	    New File  		      46	wline.gif  0%  100%  
	  New Dir          4	C:\Users\matt\Documents\Visual Studio 2015\Projects\quiz3 (2)\packages\UmbracoCms.7.6.5\UmbracoFiles\Umbraco_Client\Tinymce3\Plugins\Style\
	    New File  		    1117	editor_plugin.js  0%  100%  
	    New File  		    1927	editor_plugin_src.js  0%  100%  
	    New File  		   38494	props.htm  0%  100%  
	    New File  		    1030	readme.txt  0%  100%  
	  New Dir          1	C:\Users\matt\Documents\Visual Studio 2015\Projects\quiz3 (2)\packages\UmbracoCms.7.6.5\UmbracoFiles\Umbraco_Client\Tinymce3\Plugins\Style\Css\
	    New File  		     906	props.css  0%  100%  
	  New Dir          1	C:\Users\matt\Documents\Visual Studio 2015\Projects\quiz3 (2)\packages\UmbracoCms.7.6.5\UmbracoFiles\Umbraco_Client\Tinymce3\Plugins\Style\Js\
	    New File  		   32355	props.js  0%  100%  
	  New Dir         16	C:\Users\matt\Documents\Visual Studio 2015\Projects\quiz3 (2)\packages\UmbracoCms.7.6.5\UmbracoFiles\Umbraco_Client\Tinymce3\Plugins\Style\Langs\
	    New File  		    1689	da_dlg.js  0%  100%  
	    New File  		    1824	de_dlg.js  0%  100%  
	    New File  		    1627	en_dlg.js  0%  100%  
	    New File  		    1630	en_us_dlg.js  0%  100%  
	    New File  		    1762	fi_dlg.js  0%  100%  
	    New File  		    1723	fr_dlg.js  0%  100%  
	    New File  		    3246	he_dlg.js  0%  100%  
	    New File  		    1718	it_dlg.js  0%  100%  
	    New File  		    2436	ja_dlg.js  0%  100%  
	    New File  		    1652	nl_dlg.js  0%  100%  
	    New File  		    1648	no_dlg.js  0%  100%  
	    New File  		    1916	pl_dlg.js  0%  100%  
	    New File  		    1684	pt_dlg.js  0%  100%  
	    New File  		    4509	ru_dlg.js  0%  100%  
	    New File  		    1700	sv_dlg.js  0%  100%  
	    New File  		    2005	zh_dlg.js  0%  100%  
	  New Dir          2	C:\Users\matt\Documents\Visual Studio 2015\Projects\quiz3 (2)\packages\UmbracoCms.7.6.5\UmbracoFiles\Umbraco_Client\Tinymce3\Plugins\Tabfocus\
	    New File  		    1666	editor_plugin.js  0%  100%  
	    New File  		    3057	editor_plugin_src.js  0%  100%  
	  New Dir          6	C:\Users\matt\Documents\Visual Studio 2015\Projects\quiz3 (2)\packages\UmbracoCms.7.6.5\UmbracoFiles\Umbraco_Client\Tinymce3\Plugins\Table\
	    New File  		    7292	cell.htm  0%  100%  
	    New File  		   17667	editor_plugin.js  0%  100%  
	    New File  		   40915	editor_plugin_src.js  0%  100%  
	    New File  		    1508	merge_cells.htm  0%  100%  
	    New File  		    6263	row.htm  0%  100%  
	    New File  		    9035	table.htm  0%  100%  
	  New Dir          3	C:\Users\matt\Documents\Visual Studio 2015\Projects\quiz3 (2)\packages\UmbracoCms.7.6.5\UmbracoFiles\Umbraco_Client\Tinymce3\Plugins\Table\Css\
	    New File  		     205	cell.css  0%  100%  
	    New File  		     306	row.css  0%  100%  
	    New File  		     170	table.css  0%  100%  
	  New Dir          4	C:\Users\matt\Documents\Visual Studio 2015\Projects\quiz3 (2)\packages\UmbracoCms.7.6.5\UmbracoFiles\Umbraco_Client\Tinymce3\Plugins\Table\Js\
	    New File  		    9458	cell.js  0%  100%  
	    New File  		     566	merge_cells.js  0%  100%  
	    New File  		    7775	row.js  0%  100%  
	    New File  		   15534	table.js  0%  100%  
	  New Dir         16	C:\Users\matt\Documents\Visual Studio 2015\Projects\quiz3 (2)\packages\UmbracoCms.7.6.5\UmbracoFiles\Umbraco_Client\Tinymce3\Plugins\Table\Langs\
	    New File  		    2262	da_dlg.js  0%  100%  
	    New File  		    2462	de_dlg.js  0%  100%  
	    New File  		    2092	en_dlg.js  0%  100%  
	    New File  		    2095	en_us_dlg.js  0%  100%  
	    New File  		    2516	fi_dlg.js  0%  100%  
	    New File  		    2694	fr_dlg.js  0%  100%  
	    New File  		    4748	he_dlg.js  0%  100%  
	    New File  		    2301	it_dlg.js  0%  100%  
	    New File  		    3631	ja_dlg.js  0%  100%  
	    New File  		    2199	nl_dlg.js  0%  100%  
	    New File  		    2247	no_dlg.js  0%  100%  
	    New File  		    2653	pl_dlg.js  0%  100%  
	    New File  		    2285	pt_dlg.js  0%  100%  
	    New File  		    6724	ru_dlg.js  0%  100%  
	    New File  		    2189	sv_dlg.js  0%  100%  
	    New File  		    2859	zh_dlg.js  0%  100%  
	  New Dir          4	C:\Users\matt\Documents\Visual Studio 2015\Projects\quiz3 (2)\packages\UmbracoCms.7.6.5\UmbracoFiles\Umbraco_Client\Tinymce3\Plugins\Template\
	    New File  		     332	blank.htm  0%  100%  
	    New File  		    3302	editor_plugin.js  0%  100%  
	    New File  		    4986	editor_plugin_src.js  0%  100%  
	    New File  		    1441	template.htm  0%  100%  
	  New Dir          1	C:\Users\matt\Documents\Visual Studio 2015\Projects\quiz3 (2)\packages\UmbracoCms.7.6.5\UmbracoFiles\Umbraco_Client\Tinymce3\Plugins\Template\Css\
	    New File  		     275	template.css  0%  100%  
	  New Dir          1	C:\Users\matt\Documents\Visual Studio 2015\Projects\quiz3 (2)\packages\UmbracoCms.7.6.5\UmbracoFiles\Umbraco_Client\Tinymce3\Plugins\Template\Js\
	    New File  		    2777	template.js  0%  100%  
	  New Dir         16	C:\Users\matt\Documents\Visual Studio 2015\Projects\quiz3 (2)\packages\UmbracoCms.7.6.5\UmbracoFiles\Umbraco_Client\Tinymce3\Plugins\Template\Langs\
	    New File  		     670	da_dlg.js  0%  100%  
	    New File  		     662	de_dlg.js  0%  100%  
	    New File  		     627	en_dlg.js  0%  100%  
	    New File  		     630	en_us_dlg.js  0%  100%  
	    New File  		     756	fi_dlg.js  0%  100%  
	    New File  		     731	fr_dlg.js  0%  100%  
	    New File  		    1065	he_dlg.js  0%  100%  
	    New File  		     693	it_dlg.js  0%  100%  
	    New File  		    1041	ja_dlg.js  0%  100%  
	    New File  		     670	nl_dlg.js  0%  100%  
	    New File  		     651	no_dlg.js  0%  100%  
	    New File  		     688	pl_dlg.js  0%  100%  
	    New File  		     694	pt_dlg.js  0%  100%  
	    New File  		    2076	ru_dlg.js  0%  100%  
	    New File  		     670	sv_dlg.js  0%  100%  
	    New File  		     989	zh_dlg.js  0%  100%  
	  New Dir          1	C:\Users\matt\Documents\Visual Studio 2015\Projects\quiz3 (2)\packages\UmbracoCms.7.6.5\UmbracoFiles\Umbraco_Client\Tinymce3\Plugins\Umbracocontextmenu\
	    New File  		    2561	editor_plugin_src.js  0%  100%  
	  New Dir          2	C:\Users\matt\Documents\Visual Studio 2015\Projects\quiz3 (2)\packages\UmbracoCms.7.6.5\UmbracoFiles\Umbraco_Client\Tinymce3\Plugins\Umbracocss\
	    New File  		     991	dialog.htm  0%  100%  
	    New File  		    8362	editor_plugin_src.js  0%  100%  
	  New Dir          1	C:\Users\matt\Documents\Visual Studio 2015\Projects\quiz3 (2)\packages\UmbracoCms.7.6.5\UmbracoFiles\Umbraco_Client\Tinymce3\Plugins\Umbracocss\Img\
	    New File  		      87	example.gif  0%  100%  
	  New Dir          1	C:\Users\matt\Documents\Visual Studio 2015\Projects\quiz3 (2)\packages\UmbracoCms.7.6.5\UmbracoFiles\Umbraco_Client\Tinymce3\Plugins\Umbracocss\Js\
	    New File  		     609	dialog.js  0%  100%  
	  New Dir         14	C:\Users\matt\Documents\Visual Studio 2015\Projects\quiz3 (2)\packages\UmbracoCms.7.6.5\UmbracoFiles\Umbraco_Client\Tinymce3\Plugins\Umbracocss\Langs\
	    New File  		      79	en.js  0%  100%  
	    New File  		      82	en_dlg.js  0%  100%  
	    New File  		      82	en_us.js  0%  100%  
	    New File  		      85	en_us_dlg.js  0%  100%  
	    New File  		      67	it.js  0%  100%  
	    New File  		      71	it_dlg.js  0%  100%  
	    New File  		      92	ja.js  0%  100%  
	    New File  		      84	ja_dlg.js  0%  100%  
	    New File  		      96	ru.js  0%  100%  
	    New File  		     105	ru_dlg.js  0%  100%  
	    New File  		      76	sv.js  0%  100%  
	    New File  		      93	sv_dlg.js  0%  100%  
	    New File  		      67	zh.js  0%  100%  
	    New File  		      72	zh_dlg.js  0%  100%  
	  New Dir          3	C:\Users\matt\Documents\Visual Studio 2015\Projects\quiz3 (2)\packages\UmbracoCms.7.6.5\UmbracoFiles\Umbraco_Client\Tinymce3\Plugins\Umbracoembed\
	    New File  		    3816	dialog.htm  0%  100%  
	    New File  		     860	editor_plugin.js  0%  100%  
	    New File  		    2984	editor_plugin_src.js  0%  100%  
	  New Dir          2	C:\Users\matt\Documents\Visual Studio 2015\Projects\quiz3 (2)\packages\UmbracoCms.7.6.5\UmbracoFiles\Umbraco_Client\Tinymce3\Plugins\Umbracoembed\Img\
	    New File  		    1928	ajax-loader.gif  0%  100%  
	    New File  		     260	embed.gif  0%  100%  
	  New Dir          1	C:\Users\matt\Documents\Visual Studio 2015\Projects\quiz3 (2)\packages\UmbracoCms.7.6.5\UmbracoFiles\Umbraco_Client\Tinymce3\Plugins\Umbracoembed\Js\
	    New File  		    3260	dialog.js  0%  100%  
	  New Dir         18	C:\Users\matt\Documents\Visual Studio 2015\Projects\quiz3 (2)\packages\UmbracoCms.7.6.5\UmbracoFiles\Umbraco_Client\Tinymce3\Plugins\Umbracoembed\Langs\
	    New File  		      85	da.js  0%  100%  
	    New File  		     251	da_dlg.js  0%  100%  
	    New File  		     272	de.js  0%  100%  
	    New File  		     272	de_dlg.js  0%  100%  
	    New File  		      78	en.js  0%  100%  
	    New File  		     232	en_dlg.js  0%  100%  
	    New File  		      81	en_us.js  0%  100%  
	    New File  		     235	en_us_dlg.js  0%  100%  
	    New File  		     236	it.js  0%  100%  
	    New File  		     244	it_dlg.js  0%  100%  
	    New File  		     267	ja.js  0%  100%  
	    New File  		     268	ja_dlg.js  0%  100%  
	    New File  		     329	ru.js  0%  100%  
	    New File  		     329	ru_dlg.js  0%  100%  
	    New File  		     260	sv.js  0%  100%  
	    New File  		     260	sv_dlg.js  0%  100%  
	    New File  		     235	zh.js  0%  100%  
	    New File  		     235	zh_dlg.js  0%  100%  
	  New Dir          1	C:\Users\matt\Documents\Visual Studio 2015\Projects\quiz3 (2)\packages\UmbracoCms.7.6.5\UmbracoFiles\Umbraco_Client\Tinymce3\Plugins\Umbracoimg\
	    New File  		    1739	editor_plugin_src.js  0%  100%  
	  New Dir          1	C:\Users\matt\Documents\Visual Studio 2015\Projects\quiz3 (2)\packages\UmbracoCms.7.6.5\UmbracoFiles\Umbraco_Client\Tinymce3\Plugins\Umbracoimg\Js\
	    New File  		   10412	image.js  0%  100%  
	  New Dir          8	C:\Users\matt\Documents\Visual Studio 2015\Projects\quiz3 (2)\packages\UmbracoCms.7.6.5\UmbracoFiles\Umbraco_Client\Tinymce3\Plugins\Umbracoimg\Langs\
	    New File  		    1495	en_dlg.js  0%  100%  
	    New File  		    1498	en_us_dlg.js  0%  100%  
	    New File  		    1495	he_dlg.js  0%  100%  
	    New File  		    1583	it_dlg.js  0%  100%  
	    New File  		    1694	ja_dlg.js  0%  100%  
	    New File  		    2314	ru_dlg.js  0%  100%  
	    New File  		    1536	sv_dlg.js  0%  100%  
	    New File  		    1346	zh_dlg.js  0%  100%  
	  New Dir          1	C:\Users\matt\Documents\Visual Studio 2015\Projects\quiz3 (2)\packages\UmbracoCms.7.6.5\UmbracoFiles\Umbraco_Client\Tinymce3\Plugins\Umbracolink\
	    New File  		    1860	editor_plugin_src.js  0%  100%  
	  New Dir          1	C:\Users\matt\Documents\Visual Studio 2015\Projects\quiz3 (2)\packages\UmbracoCms.7.6.5\UmbracoFiles\Umbraco_Client\Tinymce3\Plugins\Umbracolink\Js\
	    New File  		   17755	umbracolink.js  0%  100%  
	  New Dir         16	C:\Users\matt\Documents\Visual Studio 2015\Projects\quiz3 (2)\packages\UmbracoCms.7.6.5\UmbracoFiles\Umbraco_Client\Tinymce3\Plugins\Umbracolink\Langs\
	    New File  		    1944	da_dlg.js  0%  100%  
	    New File  		    1955	de_dlg.js  0%  100%  
	    New File  		    1667	en_dlg.js  0%  100%  
	    New File  		    1670	en_us_dlg.js  0%  100%  
	    New File  		    1985	fi_dlg.js  0%  100%  
	    New File  		    2120	fr_dlg.js  0%  100%  
	    New File  		    4332	he_dlg.js  0%  100%  
	    New File  		    1864	it_dlg.js  0%  100%  
	    New File  		    3274	ja_dlg.js  0%  100%  
	    New File  		    1710	nl_dlg.js  0%  100%  
	    New File  		    1871	no_dlg.js  0%  100%  
	    New File  		    2012	pl_dlg.js  0%  100%  
	    New File  		    1962	pt_dlg.js  0%  100%  
	    New File  		    2727	ru_dlg.js  0%  100%  
	    New File  		    1846	sv_dlg.js  0%  100%  
	    New File  		    2326	zh_dlg.js  0%  100%  
	  New Dir          2	C:\Users\matt\Documents\Visual Studio 2015\Projects\quiz3 (2)\packages\UmbracoCms.7.6.5\UmbracoFiles\Umbraco_Client\Tinymce3\Plugins\Umbracomacro\
	    New File  		     991	dialog.htm  0%  100%  
	    New File  		    6151	editor_plugin_src.js  0%  100%  
	  New Dir          1	C:\Users\matt\Documents\Visual Studio 2015\Projects\quiz3 (2)\packages\UmbracoCms.7.6.5\UmbracoFiles\Umbraco_Client\Tinymce3\Plugins\Umbracomacro\Img\
	    New File  		     603	insMacro.gif  0%  100%  
	  New Dir          1	C:\Users\matt\Documents\Visual Studio 2015\Projects\quiz3 (2)\packages\UmbracoCms.7.6.5\UmbracoFiles\Umbraco_Client\Tinymce3\Plugins\Umbracomacro\Js\
	    New File  		     609	dialog.js  0%  100%  
	  New Dir         14	C:\Users\matt\Documents\Visual Studio 2015\Projects\quiz3 (2)\packages\UmbracoCms.7.6.5\UmbracoFiles\Umbraco_Client\Tinymce3\Plugins\Umbracomacro\Langs\
	    New File  		      69	en.js  0%  100%  
	    New File  		      82	en_dlg.js  0%  100%  
	    New File  		      72	en_us.js  0%  100%  
	    New File  		      85	en_us_dlg.js  0%  100%  
	    New File  		      79	he.js  0%  100%  
	    New File  		      82	he_dlg.js  0%  100%  
	    New File  		      75	ja.js  0%  100%  
	    New File  		      90	ja_dlg.js  0%  100%  
	    New File  		      86	ru.js  0%  100%  
	    New File  		      81	ru_dlg.js  0%  100%  
	    New File  		      69	sv.js  0%  100%  
	    New File  		      92	sv_dlg.js  0%  100%  
	    New File  		      66	zh.js  0%  100%  
	    New File  		      72	zh_dlg.js  0%  100%  
	  New Dir          1	C:\Users\matt\Documents\Visual Studio 2015\Projects\quiz3 (2)\packages\UmbracoCms.7.6.5\UmbracoFiles\Umbraco_Client\Tinymce3\Plugins\Umbracopaste\
	    New File  		    1753	editor_plugin_src.js  0%  100%  
	  New Dir          1	C:\Users\matt\Documents\Visual Studio 2015\Projects\quiz3 (2)\packages\UmbracoCms.7.6.5\UmbracoFiles\Umbraco_Client\Tinymce3\Plugins\Umbracoshortcut\
	    New File  		    1255	editor_plugin_src.js  0%  100%  
	  New Dir          2	C:\Users\matt\Documents\Visual Studio 2015\Projects\quiz3 (2)\packages\UmbracoCms.7.6.5\UmbracoFiles\Umbraco_Client\Tinymce3\Plugins\Visualblocks\
	    New File  		     958	editor_plugin.js  0%  100%  
	    New File  		    1712	editor_plugin_src.js  0%  100%  
	  New Dir          1	C:\Users\matt\Documents\Visual Studio 2015\Projects\quiz3 (2)\packages\UmbracoCms.7.6.5\UmbracoFiles\Umbraco_Client\Tinymce3\Plugins\Visualblocks\Css\
	    New File  		    3040	visualblocks.css  0%  100%  
	  New Dir          2	C:\Users\matt\Documents\Visual Studio 2015\Projects\quiz3 (2)\packages\UmbracoCms.7.6.5\UmbracoFiles\Umbraco_Client\Tinymce3\Plugins\Visualchars\
	    New File  		    1368	editor_plugin.js  0%  100%  
	    New File  		    2195	editor_plugin_src.js  0%  100%  
	  New Dir          2	C:\Users\matt\Documents\Visual Studio 2015\Projects\quiz3 (2)\packages\UmbracoCms.7.6.5\UmbracoFiles\Umbraco_Client\Tinymce3\Plugins\Wordcount\
	    New File  		    1960	editor_plugin.js  0%  100%  
	    New File  		    3331	editor_plugin_src.js  0%  100%  
	  New Dir          8	C:\Users\matt\Documents\Visual Studio 2015\Projects\quiz3 (2)\packages\UmbracoCms.7.6.5\UmbracoFiles\Umbraco_Client\Tinymce3\Plugins\Xhtmlxtras\
	    New File  		    6243	abbr.htm  0%  100%  
	    New File  		    6258	acronym.htm  0%  100%  
	    New File  		    6232	attributes.htm  0%  100%  
	    New File  		    6243	cite.htm  0%  100%  
	    New File  		    7294	del.htm  0%  100%  
	    New File  		    2756	editor_plugin.js  0%  100%  
	    New File  		    4098	editor_plugin_src.js  0%  100%  
	    New File  		    7299	ins.htm  0%  100%  
	  New Dir          2	C:\Users\matt\Documents\Visual Studio 2015\Projects\quiz3 (2)\packages\UmbracoCms.7.6.5\UmbracoFiles\Umbraco_Client\Tinymce3\Plugins\Xhtmlxtras\Css\
	    New File  		     197	attributes.css  0%  100%  
	    New File  		     514	popup.css  0%  100%  
	  New Dir          7	C:\Users\matt\Documents\Visual Studio 2015\Projects\quiz3 (2)\packages\UmbracoCms.7.6.5\UmbracoFiles\Umbraco_Client\Tinymce3\Plugins\Xhtmlxtras\Js\
	    New File  		     541	abbr.js  0%  100%  
	    New File  		     559	acronym.js  0%  100%  
	    New File  		    3471	attributes.js  0%  100%  
	    New File  		     541	cite.js  0%  100%  
	    New File  		    1356	del.js  0%  100%  
	    New File  		    7159	element_common.js  0%  100%  
	    New File  		    1356	ins.js  0%  100%  
	  New Dir         16	C:\Users\matt\Documents\Visual Studio 2015\Projects\quiz3 (2)\packages\UmbracoCms.7.6.5\UmbracoFiles\Umbraco_Client\Tinymce3\Plugins\Xhtmlxtras\Langs\
	    New File  		    1194	da_dlg.js  0%  100%  
	    New File  		    1141	de_dlg.js  0%  100%  
	    New File  		    1092	en_dlg.js  0%  100%  
	    New File  		    1095	en_us_dlg.js  0%  100%  
	    New File  		    1214	fi_dlg.js  0%  100%  
	    New File  		    1195	fr_dlg.js  0%  100%  
	    New File  		    2222	he_dlg.js  0%  100%  
	    New File  		    1181	it_dlg.js  0%  100%  
	    New File  		    1531	ja_dlg.js  0%  100%  
	    New File  		    1149	nl_dlg.js  0%  100%  
	    New File  		    1147	no_dlg.js  0%  100%  
	    New File  		    1159	pl_dlg.js  0%  100%  
	    New File  		    1140	pt_dlg.js  0%  100%  
	    New File  		    2564	ru_dlg.js  0%  100%  
	    New File  		    1157	sv_dlg.js  0%  100%  
	    New File  		    1372	zh_dlg.js  0%  100%  
	  New Dir          0	C:\Users\matt\Documents\Visual Studio 2015\Projects\quiz3 (2)\packages\UmbracoCms.7.6.5\UmbracoFiles\Umbraco_Client\Tinymce3\Themes\
	  New Dir         10	C:\Users\matt\Documents\Visual Studio 2015\Projects\quiz3 (2)\packages\UmbracoCms.7.6.5\UmbracoFiles\Umbraco_Client\Tinymce3\Themes\Advanced\
	    New File  		    2701	about.htm  0%  100%  
	    New File  		    1167	anchor.htm  0%  100%  
	    New File  		    2251	charmap.htm  0%  100%  
	    New File  		    3317	color_picker.htm  0%  100%  
	    New File  		   26734	editor_template.js  0%  100%  
	    New File  		   43419	editor_template_src.js  0%  100%  
	    New File  		    4038	image.htm  0%  100%  
	    New File  		    2527	link.htm  0%  100%  
	    New File  		    1732	shortcuts.htm  0%  100%  
	    New File  		    1269	source_editor.htm  0%  100%  
	  New Dir         11	C:\Users\matt\Documents\Visual Studio 2015\Projects\quiz3 (2)\packages\UmbracoCms.7.6.5\UmbracoFiles\Umbraco_Client\Tinymce3\Themes\Advanced\Img\
	    New File  		    2584	colorpicker.jpg  0%  100%  
	    New File  		     239	flash.gif  0%  100%  
	    New File  		   11982	icons.gif  0%  100%  
	    New File  		     600	iframe.gif  0%  100%  
	    New File  		     325	pagebreak.gif  0%  100%  
	    New File  		     301	quicktime.gif  0%  100%  
	    New File  		     439	realmedia.gif  0%  100%  
	    New File  		     384	shockwave.gif  0%  100%  
	    New File  		      43	trans.gif  0%  100%  
	    New File  		     597	video.gif  0%  100%  
	    New File  		     415	windowsmedia.gif  0%  100%  
	  New Dir          7	C:\Users\matt\Documents\Visual Studio 2015\Projects\quiz3 (2)\packages\UmbracoCms.7.6.5\UmbracoFiles\Umbraco_Client\Tinymce3\Themes\Advanced\Js\
	    New File  		    2203	about.js  0%  100%  
	    New File  		    1498	anchor.js  0%  100%  
	    New File  		   15793	charmap.js  0%  100%  
	    New File  		   14559	color_picker.js  0%  100%  
	    New File  		    6391	image.js  0%  100%  
	    New File  		    4947	link.js  0%  100%  
	    New File  		    1694	source_editor.js  0%  100%  
	  New Dir         28	C:\Users\matt\Documents\Visual Studio 2015\Projects\quiz3 (2)\packages\UmbracoCms.7.6.5\UmbracoFiles\Umbraco_Client\Tinymce3\Themes\Advanced\Langs\
	    New File  		    2547	da.js  0%  100%  
	    New File  		    2201	da_dlg.js  0%  100%  
	    New File  		    2623	de.js  0%  100%  
	    New File  		    2152	de_dlg.js  0%  100%  
	    New File  		    2341	en.js  0%  100%  
	    New File  		    1981	en_dlg.js  0%  100%  
	    New File  		    2767	fi.js  0%  100%  
	    New File  		    2287	fi_dlg.js  0%  100%  
	    New File  		    2782	fr.js  0%  100%  
	    New File  		    2341	fr_dlg.js  0%  100%  
	    New File  		    5268	he.js  0%  100%  
	    New File  		    4766	he_dlg.js  0%  100%  
	    New File  		    2771	it.js  0%  100%  
	    New File  		    2120	it_dlg.js  0%  100%  
	    New File  		    3775	ja.js  0%  100%  
	    New File  		    3416	ja_dlg.js  0%  100%  
	    New File  		    2329	nl.js  0%  100%  
	    New File  		    2040	nl_dlg.js  0%  100%  
	    New File  		    2400	no.js  0%  100%  
	    New File  		    2124	no_dlg.js  0%  100%  
	    New File  		    2869	pl.js  0%  100%  
	    New File  		    2298	pl_dlg.js  0%  100%  
	    New File  		    2714	pt.js  0%  100%  
	    New File  		    2217	pt_dlg.js  0%  100%  
	    New File  		    2502	sv.js  0%  100%  
	    New File  		    2205	sv_dlg.js  0%  100%  
	    New File  		    3059	zh.js  0%  100%  
	    New File  		    2544	zh_dlg.js  0%  100%  
	  New Dir          0	C:\Users\matt\Documents\Visual Studio 2015\Projects\quiz3 (2)\packages\UmbracoCms.7.6.5\UmbracoFiles\Umbraco_Client\Tinymce3\Themes\Advanced\Skins\
	  New Dir          3	C:\Users\matt\Documents\Visual Studio 2015\Projects\quiz3 (2)\packages\UmbracoCms.7.6.5\UmbracoFiles\Umbraco_Client\Tinymce3\Themes\Advanced\Skins\Default\
	    New File  		    2607	content.css  0%  100%  
	    New File  		    5761	dialog.css  0%  100%  
	    New File  		   15959	ui.css  0%  100%  
	  New Dir          6	C:\Users\matt\Documents\Visual Studio 2015\Projects\quiz3 (2)\packages\UmbracoCms.7.6.5\UmbracoFiles\Umbraco_Client\Tinymce3\Themes\Advanced\Skins\Default\Img\
	    New File  		    3133	buttons.png  0%  100%  
	    New File  		      64	items.gif  0%  100%  
	    New File  		      68	menu_arrow.gif  0%  100%  
	    New File  		      70	menu_check.gif  0%  100%  
	    New File  		    1787	progress.gif  0%  100%  
	    New File  		    1322	tabs.gif  0%  100%  
	  New Dir          3	C:\Users\matt\Documents\Visual Studio 2015\Projects\quiz3 (2)\packages\UmbracoCms.7.6.5\UmbracoFiles\Umbraco_Client\Tinymce3\Themes\Advanced\Skins\Highcontrast\
	    New File  		    1122	content.css  0%  100%  
	    New File  		    5219	dialog.css  0%  100%  
	    New File  		    8886	ui.css  0%  100%  
	  New Dir          5	C:\Users\matt\Documents\Visual Studio 2015\Projects\quiz3 (2)\packages\UmbracoCms.7.6.5\UmbracoFiles\Umbraco_Client\Tinymce3\Themes\Advanced\Skins\O2k7\
	    New File  		    2331	content.css  0%  100%  
	    New File  		    5849	dialog.css  0%  100%  
	    New File  		   15405	ui.css  0%  100%  
	    New File  		    1695	ui_black.css  0%  100%  
	    New File  		     860	ui_silver.css  0%  100%  
	  New Dir          3	C:\Users\matt\Documents\Visual Studio 2015\Projects\quiz3 (2)\packages\UmbracoCms.7.6.5\UmbracoFiles\Umbraco_Client\Tinymce3\Themes\Advanced\Skins\O2k7\Img\
	    New File  		    2766	button_bg.png  0%  100%  
	    New File  		     651	button_bg_black.png  0%  100%  
	    New File  		    2084	button_bg_silver.png  0%  100%  
	  New Dir          2	C:\Users\matt\Documents\Visual Studio 2015\Projects\quiz3 (2)\packages\UmbracoCms.7.6.5\UmbracoFiles\Umbraco_Client\Tinymce3\Themes\Simple\
	    New File  		    2226	editor_template.js  0%  100%  
	    New File  		    3205	editor_template_src.js  0%  100%  
	  New Dir          1	C:\Users\matt\Documents\Visual Studio 2015\Projects\quiz3 (2)\packages\UmbracoCms.7.6.5\UmbracoFiles\Umbraco_Client\Tinymce3\Themes\Simple\Img\
	    New File  		     806	icons.gif  0%  100%  
	  New Dir         14	C:\Users\matt\Documents\Visual Studio 2015\Projects\quiz3 (2)\packages\UmbracoCms.7.6.5\UmbracoFiles\Umbraco_Client\Tinymce3\Themes\Simple\Langs\
	    New File  		     359	da.js  0%  100%  
	    New File  		     355	de.js  0%  100%  
	    New File  		     347	en.js  0%  100%  
	    New File  		     376	fi.js  0%  100%  
	    New File  		     349	fr.js  0%  100%  
	    New File  		     539	he.js  0%  100%  
	    New File  		     345	it.js  0%  100%  
	    New File  		     487	ja.js  0%  100%  
	    New File  		     326	nl.js  0%  100%  
	    New File  		     309	no.js  0%  100%  
	    New File  		     382	pl.js  0%  100%  
	    New File  		     351	pt.js  0%  100%  
	    New File  		     347	sv.js  0%  100%  
	    New File  		     401	zh.js  0%  100%  
	  New Dir          0	C:\Users\matt\Documents\Visual Studio 2015\Projects\quiz3 (2)\packages\UmbracoCms.7.6.5\UmbracoFiles\Umbraco_Client\Tinymce3\Themes\Simple\Skins\
	  New Dir          2	C:\Users\matt\Documents\Visual Studio 2015\Projects\quiz3 (2)\packages\UmbracoCms.7.6.5\UmbracoFiles\Umbraco_Client\Tinymce3\Themes\Simple\Skins\Default\
	    New File  		     513	content.css  0%  100%  
	    New File  		    2105	ui.css  0%  100%  
	  New Dir          2	C:\Users\matt\Documents\Visual Studio 2015\Projects\quiz3 (2)\packages\UmbracoCms.7.6.5\UmbracoFiles\Umbraco_Client\Tinymce3\Themes\Simple\Skins\O2k7\
	    New File  		     461	content.css  0%  100%  
	    New File  		    2340	ui.css  0%  100%  
	  New Dir          1	C:\Users\matt\Documents\Visual Studio 2015\Projects\quiz3 (2)\packages\UmbracoCms.7.6.5\UmbracoFiles\Umbraco_Client\Tinymce3\Themes\Simple\Skins\O2k7\Img\
	    New File  		    5102	button_bg.png  0%  100%  
	  New Dir          9	C:\Users\matt\Documents\Visual Studio 2015\Projects\quiz3 (2)\packages\UmbracoCms.7.6.5\UmbracoFiles\Umbraco_Client\Tinymce3\Themes\Umbraco\
	    New File  		    2682	about.htm  0%  100%  
	    New File  		    1091	anchor.htm  0%  100%  
	    New File  		    2339	charmap.htm  0%  100%  
	    New File  		    3333	color_picker.htm  0%  100%  
	    New File  		   43516	editor_template_src.js  0%  100%  
	    New File  		    4046	image.htm  0%  100%  
	    New File  		    2547	link.htm  0%  100%  
	    New File  		    1730	shortcuts.htm  0%  100%  
	    New File  		    1382	source_editor.htm  0%  100%  
	  New Dir         11	C:\Users\matt\Documents\Visual Studio 2015\Projects\quiz3 (2)\packages\UmbracoCms.7.6.5\UmbracoFiles\Umbraco_Client\Tinymce3\Themes\Umbraco\Img\
	    New File  		    2584	colorpicker.jpg  0%  100%  
	    New File  		     239	flash.gif  0%  100%  
	    New File  		   11982	icons.gif  0%  100%  
	    New File  		     600	iframe.gif  0%  100%  
	    New File  		     325	pagebreak.gif  0%  100%  
	    New File  		     301	quicktime.gif  0%  100%  
	    New File  		     439	realmedia.gif  0%  100%  
	    New File  		     384	shockwave.gif  0%  100%  
	    New File  		      43	trans.gif  0%  100%  
	    New File  		     597	video.gif  0%  100%  
	    New File  		     415	windowsmedia.gif  0%  100%  
	  New Dir          7	C:\Users\matt\Documents\Visual Studio 2015\Projects\quiz3 (2)\packages\UmbracoCms.7.6.5\UmbracoFiles\Umbraco_Client\Tinymce3\Themes\Umbraco\Js\
	    New File  		    2203	about.js  0%  100%  
	    New File  		    1193	anchor.js  0%  100%  
	    New File  		   15793	charmap.js  0%  100%  
	    New File  		   14559	color_picker.js  0%  100%  
	    New File  		    6391	image.js  0%  100%  
	    New File  		    4884	link.js  0%  100%  
	    New File  		    1694	source_editor.js  0%  100%  
	  New Dir         30	C:\Users\matt\Documents\Visual Studio 2015\Projects\quiz3 (2)\packages\UmbracoCms.7.6.5\UmbracoFiles\Umbraco_Client\Tinymce3\Themes\Umbraco\Langs\
	    New File  		    2109	da.js  0%  100%  
	    New File  		    1926	da_dlg.js  0%  100%  
	    New File  		    2265	de.js  0%  100%  
	    New File  		    1860	de_dlg.js  0%  100%  
	    New File  		    2488	en.js  0%  100%  
	    New File  		    2066	en_dlg.js  0%  100%  
	    New File  		    2491	en_us.js  0%  100%  
	    New File  		    2069	en_us_dlg.js  0%  100%  
	    New File  		    2232	es.js  0%  100%  
	    New File  		    1998	es_dlg.js  0%  100%  
	    New File  		    2294	fr.js  0%  100%  
	    New File  		    1964	fr_dlg.js  0%  100%  
	    New File  		    2209	he.js  0%  100%  
	    New File  		    1987	he_dlg.js  0%  100%  
	    New File  		    2669	it.js  0%  100%  
	    New File  		    2058	it_dlg.js  0%  100%  
	    New File  		    2727	ja.js  0%  100%  
	    New File  		    2429	ja_dlg.js  0%  100%  
	    New File  		    2823	ko.js  0%  100%  
	    New File  		    2147	ko_dlg.js  0%  100%  
	    New File  		    1946	nl.js  0%  100%  
	    New File  		    1768	nl_dlg.js  0%  100%  
	    New File  		    1948	no.js  0%  100%  
	    New File  		    1846	no_dlg.js  0%  100%  
	    New File  		    3405	ru.js  0%  100%  
	    New File  		    2725	ru_dlg.js  0%  100%  
	    New File  		    2012	sv.js  0%  100%  
	    New File  		    1912	sv_dlg.js  0%  100%  
	    New File  		    2409	zh.js  0%  100%  
	    New File  		    2070	zh_dlg.js  0%  100%  
	  New Dir          0	C:\Users\matt\Documents\Visual Studio 2015\Projects\quiz3 (2)\packages\UmbracoCms.7.6.5\UmbracoFiles\Umbraco_Client\Tinymce3\Themes\Umbraco\Skins\
	  New Dir          3	C:\Users\matt\Documents\Visual Studio 2015\Projects\quiz3 (2)\packages\UmbracoCms.7.6.5\UmbracoFiles\Umbraco_Client\Tinymce3\Themes\Umbraco\Skins\Umbraco\
	    New File  		    1367	content.css  0%  100%  
	    New File  		    5364	dialog.css  0%  100%  
	    New File  		   16035	ui.css  0%  100%  
	  New Dir          6	C:\Users\matt\Documents\Visual Studio 2015\Projects\quiz3 (2)\packages\UmbracoCms.7.6.5\UmbracoFiles\Umbraco_Client\Tinymce3\Themes\Umbraco\Skins\Umbraco\Img\
	    New File  		    4579	buttons.png  0%  100%  
	    New File  		      70	items.gif  0%  100%  
	    New File  		      68	menu_arrow.gif  0%  100%  
	    New File  		      70	menu_check.gif  0%  100%  
	    New File  		    1787	progress.gif  0%  100%  
	    New File  		    1326	tabs.gif  0%  100%  
	  New Dir          4	C:\Users\matt\Documents\Visual Studio 2015\Projects\quiz3 (2)\packages\UmbracoCms.7.6.5\UmbracoFiles\Umbraco_Client\Tinymce3\Utils\
	    New File  		    2046	editable_selects.js  0%  100%  
	    New File  		    5991	form_utils.js  0%  100%  
	    New File  		    4055	mctabs.js  0%  100%  
	    New File  		    6100	validate.js  0%  100%  
	  New Dir         11	C:\Users\matt\Documents\Visual Studio 2015\Projects\quiz3 (2)\packages\UmbracoCms.7.6.5\UmbracoFiles\Umbraco_Client\Tree\
	    New File  		    2638	jquery.tree.checkbox.js  0%  100%  
	    New File  		    9637	jquery.tree.contextmenu.js  0%  100%  
	    New File  		  114705	jquery.tree.js  0%  100%  
	    New File  		     548	jquery.tree.metadata.js  0%  100%  
	    New File  		    1642	menuIcons.css  0%  100%  
	    New File  		    1866	NodeDefinition.js  0%  100%  
	    New File  		   12897	sprites.png  0%  100%  
	    New File  		    7307	sprites_ie6.gif  0%  100%  
	    New File  		    2597	treeIcons.css  0%  100%  
	    New File  		    3662	UmbracoContext.js  0%  100%  
	    New File  		   55287	UmbracoTree.js  0%  100%  
	  New Dir          5	C:\Users\matt\Documents\Visual Studio 2015\Projects\quiz3 (2)\packages\UmbracoCms.7.6.5\UmbracoFiles\Umbraco_Client\Tree\Themes\
	    New File  		      61	marker.gif  0%  100%  
	    New File  		      62	marker_rtl.gif  0%  100%  
	    New File  		      52	plus.gif  0%  100%  
	    New File  		     720	remove.png  0%  100%  
	    New File  		    3867	rename.png  0%  100%  
	  New Dir          4	C:\Users\matt\Documents\Visual Studio 2015\Projects\quiz3 (2)\packages\UmbracoCms.7.6.5\UmbracoFiles\Umbraco_Client\Tree\Themes\Default\
	    New File  		      43	dot_for_ie.gif  0%  100%  
	    New File  		    6680	icons.png  0%  100%  
	    New File  		    2435	style.css  0%  100%  
	    New File  		    1844	throbber.gif  0%  100%  
	  New Dir         21	C:\Users\matt\Documents\Visual Studio 2015\Projects\quiz3 (2)\packages\UmbracoCms.7.6.5\UmbracoFiles\Umbraco_Client\Tree\Themes\Umbraco\
	    New File  		    1600	arrows.png  0%  100%  
	    New File  		    2910	check_0.png  0%  100%  
	    New File  		    3197	check_1.png  0%  100%  
	    New File  		    3283	check_2.png  0%  100%  
	    New File  		      35	context.gif  0%  100%  
	    New File  		      54	contextMenuBg.gif  0%  100%  
	    New File  		    3329	create.png  0%  100%  
	    New File  		      43	dot.gif  0%  100%  
	    New File  		    3237	f.png  0%  100%  
	    New File  		      60	fminus.gif  0%  100%  
	    New File  		      59	fminus_rtl.gif  0%  100%  
	    New File  		     108	fplus.gif  0%  100%  
	    New File  		     108	fplus_rtl.gif  0%  100%  
	    New File  		    6680	icons.png  0%  100%  
	    New File  		      55	lastli.gif  0%  100%  
	    New File  		      54	lastli_rtl.gif  0%  100%  
	    New File  		      47	li.gif  0%  100%  
	    New File  		     381	newVersion_overlay.png  0%  100%  
	    New File  		     282	protect_overlay.gif  0%  100%  
	    New File  		    5258	style.css  0%  100%  
	    New File  		    1844	throbber.gif  0%  100%  
	  New Dir         14	C:\Users\matt\Documents\Visual Studio 2015\Projects\quiz3 (2)\packages\UmbracoCms.7.6.5\UmbracoFiles\Umbraco_Client\Ui\
	    New File  		   52012	base2.js  0%  100%  
	    New File  		    4482	dd.css  0%  100%  
	    New File  		     138	dd_arrow.gif  0%  100%  
	    New File  		   13659	default.css  0%  100%  
	    New File  		    2324	default.js  0%  100%  
	    New File  		    1423	jquery.alphanumeric.js  0%  100%  
	    New File  		   51648	jquery.dd.js  0%  100%  
	    New File  		   85582	jquery.js  0%  100%  
	    New File  		    3581	jquery.tooltip.min.js  0%  100%  
	    New File  		  240439	jqueryui.js  0%   54%  100%  
	    New File  		    1943	jQueryWresize.js  0%  100%  
	    New File  		    3954	json2.js  0%  100%  
	    New File  		   41412	knockout.js  0%  100%  
	    New File  		    8687	knockout.mapping.js  0%  100%  
	  New Dir          1	C:\Users\matt\Documents\Visual Studio 2015\Projects\quiz3 (2)\packages\UmbracoCms.7.6.5\UmbracoFiles\Umbraco_Client\Ui\ui-lightness\
	    New File  		   33967	jquery-ui.custom.css  0%  100%  
	  New Dir         14	C:\Users\matt\Documents\Visual Studio 2015\Projects\quiz3 (2)\packages\UmbracoCms.7.6.5\UmbracoFiles\Umbraco_Client\Ui\ui-lightness\images\
	    New File  		     260	ui-bg_diagonals-thick_18_b81900_40x40.png  0%  100%  
	    New File  		     251	ui-bg_diagonals-thick_20_666666_40x40.png  0%  100%  
	    New File  		     178	ui-bg_flat_10_000000_40x100.png  0%  100%  
	    New File  		     104	ui-bg_glass_100_f6f6f6_1x400.png  0%  100%  
	    New File  		     125	ui-bg_glass_100_fdf5ce_1x400.png  0%  100%  
	    New File  		     105	ui-bg_glass_65_ffffff_1x400.png  0%  100%  
	    New File  		    3762	ui-bg_gloss-wave_35_f6a828_500x100.png  0%  100%  
	    New File  		      90	ui-bg_highlight-soft_100_eeeeee_1x100.png  0%  100%  
	    New File  		     129	ui-bg_highlight-soft_75_ffe45c_1x100.png  0%  100%  
	    New File  		    4369	ui-icons_222222_256x240.png  0%  100%  
	    New File  		    4369	ui-icons_228ef1_256x240.png  0%  100%  
	    New File  		    4369	ui-icons_ef8c08_256x240.png  0%  100%  
	    New File  		    4369	ui-icons_ffd27a_256x240.png  0%  100%  
	    New File  		    4369	ui-icons_ffffff_256x240.png  0%  100%  

------------------------------------------------------------------------------

               Total    Copied   Skipped  Mismatch    FAILED    Extras
    Dirs :       204       203         1         0         0         0
   Files :       999       999         0         0         0         0
   Bytes :    6.14 m    6.14 m         0         0         0         0
   Times :   0:00:01   0:00:01                       0:00:00   0:00:00


   Speed :             3963301 Bytes/sec.
   Speed :             226.781 MegaBytes/min.
   Ended : 21 August 2017 06:45:10

